iRegCTL (0x00)
-----------------------------------------
|     3     |     2    |    1    |   0  |
-----------------------------------------
|  INT_CLR  |  INT_EN  |  RESET  |  EN  |
-----------------------------------------

iRegST (0x04)
-----------
|    0    |
-----------
| OVF_INT |
-----------

iRegCNT (0x08)
-----------
|   31:0  |
-----------
|   CNT   |
-----------
