%!PS-Adobe-3.0
%%Creator: Model Technology ModelSim - INTEL FPGA STARTER EDITION vsim 10.5b Simulator 2016.10 Oct  5 2016
%%Title: //cern.ch/dfs/Users/m/msilvaol/Desktop/MOdelsimPS.ps
%%CreationDate: 2017-03-08 01:14:40 am
%%DocumentData: Clean8Bit
%%DocumentNeededResources: font Helvetica
%%Orientation: Landscape
%%PageOrder: ascend
%%Pages: 1
%%EndComments
%%BeginSetup
%%BeginFeature: *PageSize 8.2677165354330704x11.69291338582677
<< /PageSize [595.27559055118104 841.88976377952747]
/ImagingBBox null
>> setpagedevice
%%EndFeature
%%EndSetup
%%Page: 1 1
gsave
90 rotate 0.12 dup neg scale
% dump string table
/NP {newpath} def/SD {setdash} def/CL {setrgbcolor} def/GR {setgray} def
/SX {exch LEdge sub XScale mul MaxLabelWidth add LMargin add LEdge LabelWidth sub add exch} def/CSX {exch dup LabelWidth gt {exch SX} {exch} ifelse} def
/MT {SX moveto} def/LS {SX lineto stroke} def/LT {SX lineto} def/LFS {SX lineto fill stroke} def/RSS {rmoveto show stroke} def/ST {stroke} def/WT {CSX moveto dup stringwidth pop} def/TSW {pop 0 originOffset} def
/TSE {MaxLabelWidth LabelWidth sub LMargin add 0 rmoveto neg originOffset} def/TS {-2 div originOffset CSX} def
/MLW {stringwidth pop dup MaxLabelWidth gt {/MaxLabelWidth exch def}{pop} ifelse XS} def
/XS {/XScale LabelWidth LMargin sub MaxLabelWidth LEdge LabelWidth sub add sub REdge LEdge sub div 1 add def} def
/ARC {5 -2 roll SX 5 2 roll arc} def/LC {1 index stringwidth pop lt {pop ()} if} def
/SW {stringwidth pop} def
/ESTR {   dup 3 add string   /CurrentStr exch def   exch 0 2 index getinterval   0 1 3 index 1 sub {     dup     2 index exch get exch     CurrentStr exch 3 -1 roll put   } for   pop   dup 1 2 2 index add {     CurrentStr exch 46 put   } for   pop} def
/LC {   exch  dup dup /CurrentStr exch def   SW 2 index gt {     CurrentStr length     dup     {       2 div cvi       3 index       CurrentStr SW       sub       dup 0 lt {         1 index         4 -1 roll         exch sub         3 1 roll       }       {         dup 5 index gt {           1 index 4 -1 roll add 3 1 roll         }         {           exit         } ifelse       } ifelse       3 index 2 index ESTR       1 index 0 eq {         exit       } if       pop     } loop     pop pop pop pop pop     CurrentStr   }   {     CurrentStr   } ifelse} def
/XScale 1 def/MaxLabelWidth 0 def/LMargin 118 def/LEdge 1488 def/REdge 6660 def/LabelWidth 1451 def
/Helvetica findfont [66 0 0 -66 0 0] makefont setfont
/originOffset   currentfont   /FontBBox get 1 get   currentfont  /FontMatrix get 3 get   mul   currentfont   /FontType get   42 eq {     1000000 div   } {     neg   } ifelse def
(/parallel_port_tb/Clk) MLW
(/parallel_port_tb/nReset) MLW
(/parallel_port_tb/Address) MLW
(/parallel_port_tb/ChipSelect) MLW
(/parallel_port_tb/Read_en) MLW
(/parallel_port_tb/Write_en) MLW
(/parallel_port_tb/ReadData) MLW
(/parallel_port_tb/WriteData) MLW
(/parallel_port_tb/ParPort) MLW
% draw waveform shading
[] 0 SD
3 setlinewidth
0 setlinejoin
2 setlinecap
0 0 0 CL
1489 140 MT 1745 140 LS
1745 212 MT 1745 140 LS
1746 212 MT 2002 212 LS
2002 212 MT 2002 140 LS
2003 140 MT 2260 140 LS
2260 212 MT 2260 140 LS
2261 212 MT 2517 212 LS
2517 212 MT 2517 140 LS
2518 140 MT 2775 140 LS
2775 212 MT 2775 140 LS
2776 212 MT 3032 212 LS
3032 212 MT 3032 140 LS
3033 140 MT 3290 140 LS
3290 212 MT 3290 140 LS
3291 212 MT 3547 212 LS
3547 212 MT 3547 140 LS
3548 140 MT 3805 140 LS
3805 212 MT 3805 140 LS
3806 212 MT 4062 212 LS
4062 212 MT 4062 140 LS
4063 140 MT 4320 140 LS
4320 212 MT 4320 140 LS
4321 212 MT 4577 212 LS
4577 212 MT 4577 140 LS
4578 140 MT 4835 140 LS
4835 212 MT 4835 140 LS
4836 212 MT 5092 212 LS
5092 212 MT 5092 140 LS
5093 140 MT 5350 140 LS
5350 212 MT 5350 140 LS
5351 212 MT 5607 212 LS
5607 212 MT 5607 140 LS
5608 140 MT 5865 140 LS
5865 212 MT 5865 140 LS
5866 212 MT 6122 212 LS
6122 212 MT 6122 140 LS
6123 140 MT 6380 140 LS
6380 212 MT 6380 140 LS
6381 212 MT 6637 212 LS
6637 212 MT 6637 140 LS
1488 332 MT 1488 296 LS
1489 332 MT 2131 332 LS
2131 332 MT 2131 260 LS
2132 260 MT 6637 260 LS
6637 260 MT 6637 260 LS
(XXXXXXXX) 959 LC 1523 416 WT pop 0 originOffset 33 add RSS
1488 380 MT 1488 380 LT 2510 380 LT 2517 416 LT ST
1488 452 MT 1488 452 LT 2510 452 LT 2517 416 LT ST
(00000000) 1475 LC 2552 416 WT pop 0 originOffset 33 add RSS
2517 416 MT 2517 416 LT 2524 380 LT 4055 380 LT 4062 416 LT ST
2517 416 MT 2517 416 LT 2524 452 LT 4055 452 LT 4062 416 LT ST
(00000001) 445 LC 4097 416 WT pop 0 originOffset 33 add RSS
4062 416 MT 4062 416 LT 4069 380 LT 4570 380 LT 4577 416 LT ST
4062 416 MT 4062 416 LT 4069 452 LT 4570 452 LT 4577 416 LT ST
(00000002) 445 LC 4612 416 WT pop 0 originOffset 33 add RSS
4577 416 MT 4577 416 LT 4584 380 LT 5085 380 LT 5092 416 LT ST
4577 416 MT 4577 416 LT 4584 452 LT 5085 452 LT 5092 416 LT ST
(00000000) 1475 LC 5127 416 WT pop 0 originOffset 33 add RSS
5092 416 MT 5092 416 LT 5099 380 LT 6637 380 LT ST
5092 416 MT 5092 416 LT 5099 452 LT 6637 452 LT ST
1489 536 MT 2517 536 LS
2517 572 MT 2517 536 LS
2518 572 MT 3032 572 LS
3032 572 MT 3032 500 LS
3033 500 MT 5607 500 LS
5607 572 MT 5607 500 LS
5608 572 MT 6637 572 LS
6637 572 MT 6637 572 LS
1489 656 MT 2517 656 LS
2517 692 MT 2517 656 LS
2518 692 MT 3547 692 LS
3547 692 MT 3547 620 LS
3548 620 MT 4062 620 LS
4062 692 MT 4062 620 LS
4063 692 MT 5092 692 LS
5092 692 MT 5092 620 LS
5093 620 MT 5607 620 LS
5607 692 MT 5607 620 LS
5608 692 MT 6637 692 LS
6637 692 MT 6637 692 LS
1489 776 MT 2517 776 LS
2517 812 MT 2517 776 LS
2518 812 MT 3032 812 LS
3032 812 MT 3032 740 LS
3033 740 MT 3547 740 LS
3547 812 MT 3547 740 LS
3548 812 MT 4062 812 LS
4062 812 MT 4062 740 LS
4063 740 MT 5092 740 LS
5092 812 MT 5092 740 LS
5093 812 MT 6637 812 LS
6637 812 MT 6637 812 LS
(XXXXXXXX) 959 LC 1523 896 WT pop 0 originOffset 33 add RSS
1488 860 MT 1488 860 LT 2510 860 LT 2517 896 LT ST
1488 932 MT 1488 932 LT 2510 932 LT 2517 896 LT ST
(00000000) 1475 LC 2552 896 WT pop 0 originOffset 33 add RSS
2517 896 MT 2517 896 LT 2524 860 LT 4055 860 LT 4062 896 LT ST
2517 896 MT 2517 896 LT 2524 932 LT 4055 932 LT 4062 896 LT ST
(0000FFFF) 445 LC 4097 896 WT pop 0 originOffset 33 add RSS
4062 896 MT 4062 896 LT 4069 860 LT 4570 860 LT 4577 896 LT ST
4062 896 MT 4062 896 LT 4069 932 LT 4570 932 LT 4577 896 LT ST
(00000000) 960 LC 4612 896 WT pop 0 originOffset 33 add RSS
4577 896 MT 4577 896 LT 4584 860 LT 5600 860 LT 5607 896 LT ST
4577 896 MT 4577 896 LT 4584 932 LT 5600 932 LT 5607 896 LT ST
(FF00FF00) 445 LC 5642 896 WT pop 0 originOffset 33 add RSS
5607 896 MT 5607 896 LT 5614 860 LT 6115 860 LT 6122 896 LT ST
5607 896 MT 5607 896 LT 5614 932 LT 6115 932 LT 6122 896 LT ST
(00000000) 445 LC 6157 896 WT pop 0 originOffset 33 add RSS
6122 896 MT 6122 896 LT 6129 860 LT 6637 860 LT ST
6122 896 MT 6122 896 LT 6129 932 LT 6637 932 LT ST
(XXXXXXXX) 959 LC 1523 1016 WT pop 0 originOffset 33 add RSS
1488 980 MT 1488 980 LT 2510 980 LT 2517 1016 LT ST
1488 1052 MT 1488 1052 LT 2510 1052 LT 2517 1016 LT ST
(00000000) 445 LC 2552 1016 WT pop 0 originOffset 33 add RSS
2517 1016 MT 2517 1016 LT 2524 980 LT 3025 980 LT 3032 1016 LT ST
2517 1016 MT 2517 1016 LT 2524 1052 LT 3025 1052 LT 3032 1016 LT ST
(0000FFFF) 445 LC 3067 1016 WT pop 0 originOffset 33 add RSS
3032 1016 MT 3032 1016 LT 3039 980 LT 3540 980 LT 3547 1016 LT ST
3032 1016 MT 3032 1016 LT 3039 1052 LT 3540 1052 LT 3547 1016 LT ST
(00000000) 445 LC 3582 1016 WT pop 0 originOffset 33 add RSS
3547 1016 MT 3547 1016 LT 3554 980 LT 4055 980 LT 4062 1016 LT ST
3547 1016 MT 3547 1016 LT 3554 1052 LT 4055 1052 LT 4062 1016 LT ST
(FF000000) 445 LC 4097 1016 WT pop 0 originOffset 33 add RSS
4062 1016 MT 4062 1016 LT 4069 980 LT 4570 980 LT 4577 1016 LT ST
4062 1016 MT 4062 1016 LT 4069 1052 LT 4570 1052 LT 4577 1016 LT ST
(000000FF) 445 LC 4612 1016 WT pop 0 originOffset 33 add RSS
4577 1016 MT 4577 1016 LT 4584 980 LT 5085 980 LT 5092 1016 LT ST
4577 1016 MT 4577 1016 LT 4584 1052 LT 5085 1052 LT 5092 1016 LT ST
(00000000) 1475 LC 5127 1016 WT pop 0 originOffset 33 add RSS
5092 1016 MT 5092 1016 LT 5099 980 LT 6637 980 LT ST
5092 1016 MT 5092 1016 LT 5099 1052 LT 6637 1052 LT ST
(XXXXXXXX) 444 LC 1523 1136 WT pop 0 originOffset 33 add RSS
1488 1100 MT 1488 1100 LT 1995 1100 LT 2002 1136 LT ST
1488 1172 MT 1488 1172 LT 1995 1172 LT 2002 1136 LT ST
(00000000) 1475 LC 2037 1136 WT pop 0 originOffset 33 add RSS
2002 1136 MT 2002 1136 LT 2009 1100 LT 3540 1100 LT 3547 1136 LT ST
2002 1136 MT 2002 1136 LT 2009 1172 LT 3540 1172 LT 3547 1136 LT ST
(0000FFFF) 960 LC 3582 1136 WT pop 0 originOffset 33 add RSS
3547 1136 MT 3547 1136 LT 3554 1100 LT 4570 1100 LT 4577 1136 LT ST
3547 1136 MT 3547 1136 LT 3554 1172 LT 4570 1172 LT 4577 1136 LT ST
(FF00FFFF) 445 LC 4612 1136 WT pop 0 originOffset 33 add RSS
4577 1136 MT 4577 1136 LT 4584 1100 LT 5085 1100 LT 5092 1136 LT ST
4577 1136 MT 4577 1136 LT 4584 1172 LT 5085 1172 LT 5092 1136 LT ST
(FF00FF00) 1475 LC 5127 1136 WT pop 0 originOffset 33 add RSS
5092 1136 MT 5092 1136 LT 5099 1100 LT 6637 1100 LT ST
5092 1136 MT 5092 1136 LT 5099 1172 LT 6637 1172 LT ST
% draw timeline
(0 ps) 9999 LC 1488 4707 WT TS RSS
1545 4599 MT 1545 4636 LS
1544 4618 MT 1546 4618 LS
1617 4599 MT 1617 4636 LS
1745 4599 MT 1745 4636 LS
1874 4599 MT 1874 4636 LS
2003 4599 MT 2003 4636 LS
2131 4572 MT 2131 4636 LS
2260 4599 MT 2260 4636 LS
2388 4599 MT 2388 4636 LS
2517 4599 MT 2517 4636 LS
2646 4599 MT 2646 4636 LS
2775 4572 MT 2775 4636 LS
(50000 ps) 9999 LC 2775 4707 WT TS RSS
2904 4599 MT 2904 4636 LS
3032 4599 MT 3032 4636 LS
3161 4599 MT 3161 4636 LS
3290 4599 MT 3290 4636 LS
3419 4572 MT 3419 4636 LS
3548 4599 MT 3548 4636 LS
3676 4599 MT 3676 4636 LS
3805 4599 MT 3805 4636 LS
3934 4599 MT 3934 4636 LS
4062 4572 MT 4062 4636 LS
(100000 ps) 9999 LC 4062 4707 WT TS RSS
4191 4599 MT 4191 4636 LS
4319 4599 MT 4319 4636 LS
4448 4599 MT 4448 4636 LS
4577 4599 MT 4577 4636 LS
4706 4572 MT 4706 4636 LS
4835 4599 MT 4835 4636 LS
4963 4599 MT 4963 4636 LS
5092 4599 MT 5092 4636 LS
5221 4599 MT 5221 4636 LS
5350 4572 MT 5350 4636 LS
(150000 ps) 9999 LC 5350 4707 WT TS RSS
5479 4599 MT 5479 4636 LS
5607 4599 MT 5607 4636 LS
5736 4599 MT 5736 4636 LS
5865 4599 MT 5865 4636 LS
5993 4572 MT 5993 4636 LS
6122 4599 MT 6122 4636 LS
6250 4599 MT 6250 4636 LS
6379 4599 MT 6379 4636 LS
6508 4599 MT 6508 4636 LS
6637 4572 MT 6637 4636 LS
(200000 ps) 9999 LC 6637 4707 WT TS RSS
6766 4599 MT 6766 4636 LS
6894 4599 MT 6894 4636 LS
7023 4599 MT 7023 4636 LS
7152 4599 MT 7152 4636 LS
% draw grid
2002 118 MT 2002 4572 LS
2517 118 MT 2517 4572 LS
3032 118 MT 3032 4572 LS
3547 118 MT 3547 4572 LS
4062 118 MT 4062 4572 LS
4577 118 MT 4577 4572 LS
5092 118 MT 5092 4572 LS
5607 118 MT 5607 4572 LS
6122 118 MT 6122 4572 LS
6637 118 MT 6637 4572 LS
% draw waveforms
(/parallel_port_tb/Clk) 9999 LC 1451 211 WT TSE RSS
1995 118 MT 2009 118 LS
2510 118 MT 2524 118 LS
3025 118 MT 3039 118 LS
3540 118 MT 3554 118 LS
4055 118 MT 4069 118 LS
4570 118 MT 4584 118 LS
5085 118 MT 5099 118 LS
5600 118 MT 5614 118 LS
6115 118 MT 6129 118 LS
6630 118 MT 6644 118 LS
1489 140 MT 1745 140 LS
1745 212 MT 1745 140 LS
1746 212 MT 2002 212 LS
2002 212 MT 2002 140 LS
2003 140 MT 2260 140 LS
2260 212 MT 2260 140 LS
2261 212 MT 2517 212 LS
2517 212 MT 2517 140 LS
2518 140 MT 2775 140 LS
2775 212 MT 2775 140 LS
2776 212 MT 3032 212 LS
3032 212 MT 3032 140 LS
3033 140 MT 3290 140 LS
3290 212 MT 3290 140 LS
3291 212 MT 3547 212 LS
3547 212 MT 3547 140 LS
3548 140 MT 3805 140 LS
3805 212 MT 3805 140 LS
3806 212 MT 4062 212 LS
4062 212 MT 4062 140 LS
4063 140 MT 4320 140 LS
4320 212 MT 4320 140 LS
4321 212 MT 4577 212 LS
4577 212 MT 4577 140 LS
4578 140 MT 4835 140 LS
4835 212 MT 4835 140 LS
4836 212 MT 5092 212 LS
5092 212 MT 5092 140 LS
5093 140 MT 5350 140 LS
5350 212 MT 5350 140 LS
5351 212 MT 5607 212 LS
5607 212 MT 5607 140 LS
5608 140 MT 5865 140 LS
5865 212 MT 5865 140 LS
5866 212 MT 6122 212 LS
6122 212 MT 6122 140 LS
6123 140 MT 6380 140 LS
6380 212 MT 6380 140 LS
6381 212 MT 6637 212 LS
6637 212 MT 6637 140 LS
(/parallel_port_tb/nReset) 9999 LC 1451 331 WT TSE RSS
1995 238 MT 2009 238 LS
2510 238 MT 2524 238 LS
3025 238 MT 3039 238 LS
3540 238 MT 3554 238 LS
4055 238 MT 4069 238 LS
4570 238 MT 4584 238 LS
5085 238 MT 5099 238 LS
5600 238 MT 5614 238 LS
6115 238 MT 6129 238 LS
6630 238 MT 6644 238 LS
1488 332 MT 1488 296 LS
1489 332 MT 2131 332 LS
2131 332 MT 2131 260 LS
2132 260 MT 6637 260 LS
6637 260 MT 6637 260 LS
(/parallel_port_tb/Address) 9999 LC 1451 451 WT TSE RSS
1995 358 MT 2009 358 LS
2510 358 MT 2524 358 LS
3025 358 MT 3039 358 LS
3540 358 MT 3554 358 LS
4055 358 MT 4069 358 LS
4570 358 MT 4584 358 LS
5085 358 MT 5099 358 LS
5600 358 MT 5614 358 LS
6115 358 MT 6129 358 LS
6630 358 MT 6644 358 LS
(XXXXXXXX) 959 LC 1523 416 WT pop 0 originOffset 33 add RSS
1488 380 MT 1488 380 LT 2510 380 LT 2517 416 LT ST
1488 452 MT 1488 452 LT 2510 452 LT 2517 416 LT ST
(00000000) 1475 LC 2552 416 WT pop 0 originOffset 33 add RSS
2517 416 MT 2517 416 LT 2524 380 LT 4055 380 LT 4062 416 LT ST
2517 416 MT 2517 416 LT 2524 452 LT 4055 452 LT 4062 416 LT ST
(00000001) 445 LC 4097 416 WT pop 0 originOffset 33 add RSS
4062 416 MT 4062 416 LT 4069 380 LT 4570 380 LT 4577 416 LT ST
4062 416 MT 4062 416 LT 4069 452 LT 4570 452 LT 4577 416 LT ST
(00000002) 445 LC 4612 416 WT pop 0 originOffset 33 add RSS
4577 416 MT 4577 416 LT 4584 380 LT 5085 380 LT 5092 416 LT ST
4577 416 MT 4577 416 LT 4584 452 LT 5085 452 LT 5092 416 LT ST
(00000000) 1475 LC 5127 416 WT pop 0 originOffset 33 add RSS
5092 416 MT 5092 416 LT 5099 380 LT 6637 380 LT ST
5092 416 MT 5092 416 LT 5099 452 LT 6637 452 LT ST
(/parallel_port_tb/ChipSelect) 9999 LC 1451 571 WT TSE RSS
1995 478 MT 2009 478 LS
2510 478 MT 2524 478 LS
3025 478 MT 3039 478 LS
3540 478 MT 3554 478 LS
4055 478 MT 4069 478 LS
4570 478 MT 4584 478 LS
5085 478 MT 5099 478 LS
5600 478 MT 5614 478 LS
6115 478 MT 6129 478 LS
6630 478 MT 6644 478 LS
1489 536 MT 2517 536 LS
2517 572 MT 2517 536 LS
2518 572 MT 3032 572 LS
3032 572 MT 3032 500 LS
3033 500 MT 5607 500 LS
5607 572 MT 5607 500 LS
5608 572 MT 6637 572 LS
6637 572 MT 6637 572 LS
(/parallel_port_tb/Read_en) 9999 LC 1451 691 WT TSE RSS
1995 598 MT 2009 598 LS
2510 598 MT 2524 598 LS
3025 598 MT 3039 598 LS
3540 598 MT 3554 598 LS
4055 598 MT 4069 598 LS
4570 598 MT 4584 598 LS
5085 598 MT 5099 598 LS
5600 598 MT 5614 598 LS
6115 598 MT 6129 598 LS
6630 598 MT 6644 598 LS
1489 656 MT 2517 656 LS
2517 692 MT 2517 656 LS
2518 692 MT 3547 692 LS
3547 692 MT 3547 620 LS
3548 620 MT 4062 620 LS
4062 692 MT 4062 620 LS
4063 692 MT 5092 692 LS
5092 692 MT 5092 620 LS
5093 620 MT 5607 620 LS
5607 692 MT 5607 620 LS
5608 692 MT 6637 692 LS
6637 692 MT 6637 692 LS
(/parallel_port_tb/Write_en) 9999 LC 1451 811 WT TSE RSS
1995 718 MT 2009 718 LS
2510 718 MT 2524 718 LS
3025 718 MT 3039 718 LS
3540 718 MT 3554 718 LS
4055 718 MT 4069 718 LS
4570 718 MT 4584 718 LS
5085 718 MT 5099 718 LS
5600 718 MT 5614 718 LS
6115 718 MT 6129 718 LS
6630 718 MT 6644 718 LS
1489 776 MT 2517 776 LS
2517 812 MT 2517 776 LS
2518 812 MT 3032 812 LS
3032 812 MT 3032 740 LS
3033 740 MT 3547 740 LS
3547 812 MT 3547 740 LS
3548 812 MT 4062 812 LS
4062 812 MT 4062 740 LS
4063 740 MT 5092 740 LS
5092 812 MT 5092 740 LS
5093 812 MT 6637 812 LS
6637 812 MT 6637 812 LS
(/parallel_port_tb/ReadData) 9999 LC 1451 931 WT TSE RSS
1995 838 MT 2009 838 LS
2510 838 MT 2524 838 LS
3025 838 MT 3039 838 LS
3540 838 MT 3554 838 LS
4055 838 MT 4069 838 LS
4570 838 MT 4584 838 LS
5085 838 MT 5099 838 LS
5600 838 MT 5614 838 LS
6115 838 MT 6129 838 LS
6630 838 MT 6644 838 LS
(XXXXXXXX) 959 LC 1523 896 WT pop 0 originOffset 33 add RSS
1488 860 MT 1488 860 LT 2510 860 LT 2517 896 LT ST
1488 932 MT 1488 932 LT 2510 932 LT 2517 896 LT ST
(00000000) 1475 LC 2552 896 WT pop 0 originOffset 33 add RSS
2517 896 MT 2517 896 LT 2524 860 LT 4055 860 LT 4062 896 LT ST
2517 896 MT 2517 896 LT 2524 932 LT 4055 932 LT 4062 896 LT ST
(0000FFFF) 445 LC 4097 896 WT pop 0 originOffset 33 add RSS
4062 896 MT 4062 896 LT 4069 860 LT 4570 860 LT 4577 896 LT ST
4062 896 MT 4062 896 LT 4069 932 LT 4570 932 LT 4577 896 LT ST
(00000000) 960 LC 4612 896 WT pop 0 originOffset 33 add RSS
4577 896 MT 4577 896 LT 4584 860 LT 5600 860 LT 5607 896 LT ST
4577 896 MT 4577 896 LT 4584 932 LT 5600 932 LT 5607 896 LT ST
(FF00FF00) 445 LC 5642 896 WT pop 0 originOffset 33 add RSS
5607 896 MT 5607 896 LT 5614 860 LT 6115 860 LT 6122 896 LT ST
5607 896 MT 5607 896 LT 5614 932 LT 6115 932 LT 6122 896 LT ST
(00000000) 445 LC 6157 896 WT pop 0 originOffset 33 add RSS
6122 896 MT 6122 896 LT 6129 860 LT 6637 860 LT ST
6122 896 MT 6122 896 LT 6129 932 LT 6637 932 LT ST
(/parallel_port_tb/WriteData) 9999 LC 1451 1051 WT TSE RSS
1995 958 MT 2009 958 LS
2510 958 MT 2524 958 LS
3025 958 MT 3039 958 LS
3540 958 MT 3554 958 LS
4055 958 MT 4069 958 LS
4570 958 MT 4584 958 LS
5085 958 MT 5099 958 LS
5600 958 MT 5614 958 LS
6115 958 MT 6129 958 LS
6630 958 MT 6644 958 LS
(XXXXXXXX) 959 LC 1523 1016 WT pop 0 originOffset 33 add RSS
1488 980 MT 1488 980 LT 2510 980 LT 2517 1016 LT ST
1488 1052 MT 1488 1052 LT 2510 1052 LT 2517 1016 LT ST
(00000000) 445 LC 2552 1016 WT pop 0 originOffset 33 add RSS
2517 1016 MT 2517 1016 LT 2524 980 LT 3025 980 LT 3032 1016 LT ST
2517 1016 MT 2517 1016 LT 2524 1052 LT 3025 1052 LT 3032 1016 LT ST
(0000FFFF) 445 LC 3067 1016 WT pop 0 originOffset 33 add RSS
3032 1016 MT 3032 1016 LT 3039 980 LT 3540 980 LT 3547 1016 LT ST
3032 1016 MT 3032 1016 LT 3039 1052 LT 3540 1052 LT 3547 1016 LT ST
(00000000) 445 LC 3582 1016 WT pop 0 originOffset 33 add RSS
3547 1016 MT 3547 1016 LT 3554 980 LT 4055 980 LT 4062 1016 LT ST
3547 1016 MT 3547 1016 LT 3554 1052 LT 4055 1052 LT 4062 1016 LT ST
(FF000000) 445 LC 4097 1016 WT pop 0 originOffset 33 add RSS
4062 1016 MT 4062 1016 LT 4069 980 LT 4570 980 LT 4577 1016 LT ST
4062 1016 MT 4062 1016 LT 4069 1052 LT 4570 1052 LT 4577 1016 LT ST
(000000FF) 445 LC 4612 1016 WT pop 0 originOffset 33 add RSS
4577 1016 MT 4577 1016 LT 4584 980 LT 5085 980 LT 5092 1016 LT ST
4577 1016 MT 4577 1016 LT 4584 1052 LT 5085 1052 LT 5092 1016 LT ST
(00000000) 1475 LC 5127 1016 WT pop 0 originOffset 33 add RSS
5092 1016 MT 5092 1016 LT 5099 980 LT 6637 980 LT ST
5092 1016 MT 5092 1016 LT 5099 1052 LT 6637 1052 LT ST
(/parallel_port_tb/ParPort) 9999 LC 1451 1171 WT TSE RSS
1995 1078 MT 2009 1078 LS
2510 1078 MT 2524 1078 LS
3025 1078 MT 3039 1078 LS
3540 1078 MT 3554 1078 LS
4055 1078 MT 4069 1078 LS
4570 1078 MT 4584 1078 LS
5085 1078 MT 5099 1078 LS
5600 1078 MT 5614 1078 LS
6115 1078 MT 6129 1078 LS
6630 1078 MT 6644 1078 LS
(XXXXXXXX) 444 LC 1523 1136 WT pop 0 originOffset 33 add RSS
1488 1100 MT 1488 1100 LT 1995 1100 LT 2002 1136 LT ST
1488 1172 MT 1488 1172 LT 1995 1172 LT 2002 1136 LT ST
(00000000) 1475 LC 2037 1136 WT pop 0 originOffset 33 add RSS
2002 1136 MT 2002 1136 LT 2009 1100 LT 3540 1100 LT 3547 1136 LT ST
2002 1136 MT 2002 1136 LT 2009 1172 LT 3540 1172 LT 3547 1136 LT ST
(0000FFFF) 960 LC 3582 1136 WT pop 0 originOffset 33 add RSS
3547 1136 MT 3547 1136 LT 3554 1100 LT 4570 1100 LT 4577 1136 LT ST
3547 1136 MT 3547 1136 LT 3554 1172 LT 4570 1172 LT 4577 1136 LT ST
(FF00FFFF) 445 LC 4612 1136 WT pop 0 originOffset 33 add RSS
4577 1136 MT 4577 1136 LT 4584 1100 LT 5085 1100 LT 5092 1136 LT ST
4577 1136 MT 4577 1136 LT 4584 1172 LT 5085 1172 LT 5092 1136 LT ST
(FF00FF00) 1475 LC 5127 1136 WT pop 0 originOffset 33 add RSS
5092 1136 MT 5092 1136 LT 5099 1100 LT 6637 1100 LT ST
5092 1136 MT 5092 1136 LT 5099 1172 LT 6637 1172 LT ST
% draw footer
(Entity:parallel_port_tb  Architecture:tb  Date: Wed Mar 08 01:14:40 CET 2017   Row: 1 Page: 1) 9999 LC 118 4841 WT TSW RSS
grestore
showpage
%%EOF
