%!PS-Adobe-3.0
%%Creator: Model Technology ModelSim - INTEL FPGA STARTER EDITION vsim 10.5b Simulator 2016.10 Oct  5 2016
%%Title: //cern.ch/dfs/Users/m/msilvaol/Desktop/PIO_sim.ps
%%CreationDate: 2017-04-13 02:12:19 pm
%%DocumentData: Clean8Bit
%%DocumentNeededResources: font Helvetica
%%Orientation: Landscape
%%PageOrder: ascend
%%Pages: 1
%%EndComments
%%BeginSetup
%%BeginFeature: *PageSize 8.2677165354330704x11.69291338582677
<< /PageSize [595.27559055118104 841.88976377952747]
/ImagingBBox null
>> setpagedevice
%%EndFeature
%%EndSetup
%%Page: 1 1
gsave
90 rotate 0.12 dup neg scale
% dump string table
/NP {newpath} def/SD {setdash} def/CL {setrgbcolor} def/GR {setgray} def
/SX {exch LEdge sub XScale mul MaxLabelWidth add LMargin add LEdge LabelWidth sub add exch} def/CSX {exch dup LabelWidth gt {exch SX} {exch} ifelse} def
/MT {SX moveto} def/LS {SX lineto stroke} def/LT {SX lineto} def/LFS {SX lineto fill stroke} def/RSS {rmoveto show stroke} def/ST {stroke} def/WT {CSX moveto dup stringwidth pop} def/TSW {pop 0 originOffset} def
/TSE {MaxLabelWidth LabelWidth sub LMargin add 0 rmoveto neg originOffset} def/TS {-2 div originOffset CSX} def
/MLW {stringwidth pop dup MaxLabelWidth gt {/MaxLabelWidth exch def}{pop} ifelse XS} def
/XS {/XScale LabelWidth LMargin sub MaxLabelWidth LEdge LabelWidth sub add sub REdge LEdge sub div 1 add def} def
/ARC {5 -2 roll SX 5 2 roll arc} def/LC {1 index stringwidth pop lt {pop ()} if} def
/SW {stringwidth pop} def
/ESTR {   dup 3 add string   /CurrentStr exch def   exch 0 2 index getinterval   0 1 3 index 1 sub {     dup     2 index exch get exch     CurrentStr exch 3 -1 roll put   } for   pop   dup 1 2 2 index add {     CurrentStr exch 46 put   } for   pop} def
/LC {   exch  dup dup /CurrentStr exch def   SW 2 index gt {     CurrentStr length     dup     {       2 div cvi       3 index       CurrentStr SW       sub       dup 0 lt {         1 index         4 -1 roll         exch sub         3 1 roll       }       {         dup 5 index gt {           1 index 4 -1 roll add 3 1 roll         }         {           exit         } ifelse       } ifelse       3 index 2 index ESTR       1 index 0 eq {         exit       } if       pop     } loop     pop pop pop pop pop     CurrentStr   }   {     CurrentStr   } ifelse} def
/XScale 1 def/MaxLabelWidth 0 def/LMargin 118 def/LEdge 1730 def/REdge 6660 def/LabelWidth 1693 def
/Helvetica findfont [66 0 0 -66 0 0] makefont setfont
/originOffset   currentfont   /FontBBox get 1 get   currentfont  /FontMatrix get 3 get   mul   currentfont   /FontType get   42 eq {     1000000 div   } {     neg   } ifelse def
(/parallel_port_tb/Clk) MLW
(/parallel_port_tb/nReset) MLW
(/parallel_port_tb/Address) MLW
(/parallel_port_tb/ChipSelect) MLW
(/parallel_port_tb/Read_en) MLW
(/parallel_port_tb/Write_en) MLW
(/parallel_port_tb/ReadData) MLW
(/parallel_port_tb/WriteData) MLW
(/parallel_port_tb/IRQ) MLW
(/parallel_port_tb/ParPort) MLW
(/parallel_port_tb/DUT/iReg) MLW
(/parallel_port_tb/DUT/iIRQEnReg) MLW
% draw waveform shading
[] 0 SD
3 setlinewidth
0 setlinejoin
2 setlinecap
0 0 0 CL
1731 140 MT 1859 140 LS
1859 212 MT 1859 140 LS
1860 212 MT 1988 212 LS
1988 212 MT 1988 140 LS
1989 140 MT 2117 140 LS
2117 212 MT 2117 140 LS
2118 212 MT 2246 212 LS
2246 212 MT 2246 140 LS
2247 140 MT 2375 140 LS
2375 212 MT 2375 140 LS
2376 212 MT 2504 212 LS
2504 212 MT 2504 140 LS
2505 140 MT 2633 140 LS
2633 212 MT 2633 140 LS
2634 212 MT 2763 212 LS
2763 212 MT 2763 140 LS
2764 140 MT 2892 140 LS
2892 212 MT 2892 140 LS
2893 212 MT 3021 212 LS
3021 212 MT 3021 140 LS
3022 140 MT 3150 140 LS
3150 212 MT 3150 140 LS
3151 212 MT 3279 212 LS
3279 212 MT 3279 140 LS
3280 140 MT 3408 140 LS
3408 212 MT 3408 140 LS
3409 212 MT 3537 212 LS
3537 212 MT 3537 140 LS
3538 140 MT 3666 140 LS
3666 212 MT 3666 140 LS
3667 212 MT 3796 212 LS
3796 212 MT 3796 140 LS
3797 140 MT 3925 140 LS
3925 212 MT 3925 140 LS
3926 212 MT 4054 212 LS
4054 212 MT 4054 140 LS
4055 140 MT 4183 140 LS
4183 212 MT 4183 140 LS
4184 212 MT 4312 212 LS
4312 212 MT 4312 140 LS
4313 140 MT 4441 140 LS
4441 212 MT 4441 140 LS
4442 212 MT 4570 212 LS
4570 212 MT 4570 140 LS
4571 140 MT 4699 140 LS
4699 212 MT 4699 140 LS
4700 212 MT 4829 212 LS
4829 212 MT 4829 140 LS
4830 140 MT 4958 140 LS
4958 212 MT 4958 140 LS
4959 212 MT 5087 212 LS
5087 212 MT 5087 140 LS
5088 140 MT 5216 140 LS
5216 212 MT 5216 140 LS
5217 212 MT 5345 212 LS
5345 212 MT 5345 140 LS
5346 140 MT 5474 140 LS
5474 212 MT 5474 140 LS
5475 212 MT 5603 212 LS
5603 212 MT 5603 140 LS
5604 140 MT 5732 140 LS
5732 212 MT 5732 140 LS
5733 212 MT 5862 212 LS
5862 212 MT 5862 140 LS
5863 140 MT 5991 140 LS
5991 212 MT 5991 140 LS
5992 212 MT 6120 212 LS
6120 212 MT 6120 140 LS
6121 140 MT 6249 140 LS
6249 212 MT 6249 140 LS
6250 212 MT 6378 212 LS
6378 212 MT 6378 140 LS
6379 140 MT 6507 140 LS
6507 212 MT 6507 140 LS
6508 212 MT 6636 212 LS
6636 212 MT 6636 140 LS
6637 140 MT 6765 140 LS
6765 212 MT 6765 140 LS
6766 212 MT 6895 212 LS
6895 212 MT 6895 140 LS
1730 332 MT 1730 296 LS
1731 332 MT 2052 332 LS
2052 332 MT 2052 260 LS
2053 260 MT 6895 260 LS
6895 260 MT 6895 260 LS
(X) 446 LC 1765 416 WT pop 0 originOffset 33 add RSS
1730 380 MT 1730 380 LT 2239 380 LT 2246 416 LT ST
1730 452 MT 1730 452 LT 2239 452 LT 2246 416 LT ST
(0) 705 LC 2281 416 WT pop 0 originOffset 33 add RSS
2246 416 MT 2246 416 LT 2253 380 LT 3014 380 LT 3021 416 LT ST
2246 416 MT 2246 416 LT 2253 452 LT 3014 452 LT 3021 416 LT ST
(1) 188 LC 3056 416 WT pop 0 originOffset 33 add RSS
3021 416 MT 3021 416 LT 3028 380 LT 3272 380 LT 3279 416 LT ST
3021 416 MT 3021 416 LT 3028 452 LT 3272 452 LT 3279 416 LT ST
(2) 188 LC 3314 416 WT pop 0 originOffset 33 add RSS
3279 416 MT 3279 416 LT 3286 380 LT 3530 380 LT 3537 416 LT ST
3279 416 MT 3279 416 LT 3286 452 LT 3530 452 LT 3537 416 LT ST
(0) 189 LC 3572 416 WT pop 0 originOffset 33 add RSS
3537 416 MT 3537 416 LT 3544 380 LT 3789 380 LT 3796 416 LT ST
3537 416 MT 3537 416 LT 3544 452 LT 3789 452 LT 3796 416 LT ST
(3) 188 LC 3831 416 WT pop 0 originOffset 33 add RSS
3796 416 MT 3796 416 LT 3803 380 LT 4047 380 LT 4054 416 LT ST
3796 416 MT 3796 416 LT 3803 452 LT 4047 452 LT 4054 416 LT ST
(1) 188 LC 4089 416 WT pop 0 originOffset 33 add RSS
4054 416 MT 4054 416 LT 4061 380 LT 4305 380 LT 4312 416 LT ST
4054 416 MT 4054 416 LT 4061 452 LT 4305 452 LT 4312 416 LT ST
(0) 1480 LC 4347 416 WT pop 0 originOffset 33 add RSS
4312 416 MT 4312 416 LT 4319 380 LT 5855 380 LT 5862 416 LT ST
4312 416 MT 4312 416 LT 4319 452 LT 5855 452 LT 5862 416 LT ST
(2) 188 LC 5897 416 WT pop 0 originOffset 33 add RSS
5862 416 MT 5862 416 LT 5869 380 LT 6113 380 LT 6120 416 LT ST
5862 416 MT 5862 416 LT 5869 452 LT 6113 452 LT 6120 416 LT ST
(0) 705 LC 6155 416 WT pop 0 originOffset 33 add RSS
6120 416 MT 6120 416 LT 6127 380 LT 6895 380 LT ST
6120 416 MT 6120 416 LT 6127 452 LT 6895 452 LT ST
1731 536 MT 2246 536 LS
2246 572 MT 2246 536 LS
2247 572 MT 2504 572 LS
2504 572 MT 2504 500 LS
2505 500 MT 4312 500 LS
4312 572 MT 4312 500 LS
4313 572 MT 5862 572 LS
5862 572 MT 5862 500 LS
5863 500 MT 6120 500 LS
6120 572 MT 6120 500 LS
6121 572 MT 6895 572 LS
6895 572 MT 6895 572 LS
1731 656 MT 2246 656 LS
2246 692 MT 2246 656 LS
2247 692 MT 2763 692 LS
2763 692 MT 2763 620 LS
2764 620 MT 3021 620 LS
3021 692 MT 3021 620 LS
3022 692 MT 3537 692 LS
3537 692 MT 3537 620 LS
3538 620 MT 3796 620 LS
3796 692 MT 3796 620 LS
3797 692 MT 6895 692 LS
6895 692 MT 6895 692 LS
1731 776 MT 2246 776 LS
2246 812 MT 2246 776 LS
2247 812 MT 2504 812 LS
2504 812 MT 2504 740 LS
2505 740 MT 2763 740 LS
2763 812 MT 2763 740 LS
2764 812 MT 3021 812 LS
3021 812 MT 3021 740 LS
3022 740 MT 3537 740 LS
3537 812 MT 3537 740 LS
3538 812 MT 3796 812 LS
3796 812 MT 3796 740 LS
3797 740 MT 4312 740 LS
4312 812 MT 4312 740 LS
4313 812 MT 5862 812 LS
5862 812 MT 5862 740 LS
5863 740 MT 6120 740 LS
6120 812 MT 6120 740 LS
6121 812 MT 6895 812 LS
6895 812 MT 6895 812 LS
(XXXXXXXX) 446 LC 1765 896 WT pop 0 originOffset 33 add RSS
1730 860 MT 1730 860 LT 2239 860 LT 2246 896 LT ST
1730 932 MT 1730 932 LT 2239 932 LT 2246 896 LT ST
(00000000) 705 LC 2281 896 WT pop 0 originOffset 33 add RSS
2246 896 MT 2246 896 LT 2253 860 LT 3014 860 LT 3021 896 LT ST
2246 896 MT 2246 896 LT 2253 932 LT 3014 932 LT 3021 896 LT ST
(0000FFFF) 188 LC 3056 896 WT pop 0 originOffset 33 add RSS
3021 896 MT 3021 896 LT 3028 860 LT 3272 860 LT 3279 896 LT ST
3021 896 MT 3021 896 LT 3028 932 LT 3272 932 LT 3279 896 LT ST
(00000000) 447 LC 3314 896 WT pop 0 originOffset 33 add RSS
3279 896 MT 3279 896 LT 3286 860 LT 3789 860 LT 3796 896 LT ST
3279 896 MT 3279 896 LT 3286 932 LT 3789 932 LT 3796 896 LT ST
(FF00FF00) 188 LC 3831 896 WT pop 0 originOffset 33 add RSS
3796 896 MT 3796 896 LT 3803 860 LT 4047 860 LT 4054 896 LT ST
3796 896 MT 3796 896 LT 3803 932 LT 4047 932 LT 4054 896 LT ST
(00000000) 2771 LC 4089 896 WT pop 0 originOffset 33 add RSS
4054 896 MT 4054 896 LT 4061 860 LT 6895 860 LT ST
4054 896 MT 4054 896 LT 4061 932 LT 6895 932 LT ST
(XXXXXXXX) 446 LC 1765 1016 WT pop 0 originOffset 33 add RSS
1730 980 MT 1730 980 LT 2239 980 LT 2246 1016 LT ST
1730 1052 MT 1730 1052 LT 2239 1052 LT 2246 1016 LT ST
(00000000) 188 LC 2281 1016 WT pop 0 originOffset 33 add RSS
2246 1016 MT 2246 1016 LT 2253 980 LT 2497 980 LT 2504 1016 LT ST
2246 1016 MT 2246 1016 LT 2253 1052 LT 2497 1052 LT 2504 1016 LT ST
(0000FFFF) 189 LC 2539 1016 WT pop 0 originOffset 33 add RSS
2504 1016 MT 2504 1016 LT 2511 980 LT 2756 980 LT 2763 1016 LT ST
2504 1016 MT 2504 1016 LT 2511 1052 LT 2756 1052 LT 2763 1016 LT ST
(00000000) 188 LC 2798 1016 WT pop 0 originOffset 33 add RSS
2763 1016 MT 2763 1016 LT 2770 980 LT 3014 980 LT 3021 1016 LT ST
2763 1016 MT 2763 1016 LT 2770 1052 LT 3014 1052 LT 3021 1016 LT ST
(FF000000) 188 LC 3056 1016 WT pop 0 originOffset 33 add RSS
3021 1016 MT 3021 1016 LT 3028 980 LT 3272 980 LT 3279 1016 LT ST
3021 1016 MT 3021 1016 LT 3028 1052 LT 3272 1052 LT 3279 1016 LT ST
(000000FF) 188 LC 3314 1016 WT pop 0 originOffset 33 add RSS
3279 1016 MT 3279 1016 LT 3286 980 LT 3530 980 LT 3537 1016 LT ST
3279 1016 MT 3279 1016 LT 3286 1052 LT 3530 1052 LT 3537 1016 LT ST
(00000000) 189 LC 3572 1016 WT pop 0 originOffset 33 add RSS
3537 1016 MT 3537 1016 LT 3544 980 LT 3789 980 LT 3796 1016 LT ST
3537 1016 MT 3537 1016 LT 3544 1052 LT 3789 1052 LT 3796 1016 LT ST
(00000001) 446 LC 3831 1016 WT pop 0 originOffset 33 add RSS
3796 1016 MT 3796 1016 LT 3803 980 LT 4305 980 LT 4312 1016 LT ST
3796 1016 MT 3796 1016 LT 3803 1052 LT 4305 1052 LT 4312 1016 LT ST
(00000000) 1480 LC 4347 1016 WT pop 0 originOffset 33 add RSS
4312 1016 MT 4312 1016 LT 4319 980 LT 5855 980 LT 5862 1016 LT ST
4312 1016 MT 4312 1016 LT 4319 1052 LT 5855 1052 LT 5862 1016 LT ST
(00000001) 188 LC 5897 1016 WT pop 0 originOffset 33 add RSS
5862 1016 MT 5862 1016 LT 5869 980 LT 6113 980 LT 6120 1016 LT ST
5862 1016 MT 5862 1016 LT 5869 1052 LT 6113 1052 LT 6120 1016 LT ST
(00000000) 705 LC 6155 1016 WT pop 0 originOffset 33 add RSS
6120 1016 MT 6120 1016 LT 6127 980 LT 6895 980 LT ST
6120 1016 MT 6120 1016 LT 6127 1052 LT 6895 1052 LT ST
1731 1136 MT 1988 1136 LS
1988 1172 MT 1988 1136 LS
1989 1172 MT 4570 1172 LS
4570 1172 MT 4570 1100 LS
4571 1100 MT 6378 1100 LS
6378 1172 MT 6378 1100 LS
6379 1172 MT 6895 1172 LS
6895 1172 MT 6895 1172 LS
(XXXXXXXX) 188 LC 1765 1256 WT pop 0 originOffset 33 add RSS
1730 1220 MT 1730 1220 LT 1981 1220 LT 1988 1256 LT ST
1730 1292 MT 1730 1292 LT 1981 1292 LT 1988 1256 LT ST
(00000000) 705 LC 2023 1256 WT pop 0 originOffset 33 add RSS
1988 1256 MT 1988 1256 LT 1995 1220 LT 2756 1220 LT 2763 1256 LT ST
1988 1256 MT 1988 1256 LT 1995 1292 LT 2756 1292 LT 2763 1256 LT ST
(0000FFFF) 446 LC 2798 1256 WT pop 0 originOffset 33 add RSS
2763 1256 MT 2763 1256 LT 2770 1220 LT 3272 1220 LT 3279 1256 LT ST
2763 1256 MT 2763 1256 LT 2770 1292 LT 3272 1292 LT 3279 1256 LT ST
(FF00FFFF) 188 LC 3314 1256 WT pop 0 originOffset 33 add RSS
3279 1256 MT 3279 1256 LT 3286 1220 LT 3530 1220 LT 3537 1256 LT ST
3279 1256 MT 3279 1256 LT 3286 1292 LT 3530 1292 LT 3537 1256 LT ST
(FF00FF00) 705 LC 3572 1256 WT pop 0 originOffset 33 add RSS
3537 1256 MT 3537 1256 LT 3544 1220 LT 4305 1220 LT 4312 1256 LT ST
3537 1256 MT 3537 1256 LT 3544 1292 LT 4305 1292 LT 4312 1256 LT ST
(FF00FF01) 1738 LC 4347 1256 WT pop 0 originOffset 33 add RSS
4312 1256 MT 4312 1256 LT 4319 1220 LT 6113 1220 LT 6120 1256 LT ST
4312 1256 MT 4312 1256 LT 4319 1292 LT 6113 1292 LT 6120 1256 LT ST
(FF00FF00) 705 LC 6155 1256 WT pop 0 originOffset 33 add RSS
6120 1256 MT 6120 1256 LT 6127 1220 LT 6895 1220 LT ST
6120 1256 MT 6120 1256 LT 6127 1292 LT 6895 1292 LT ST
(XXXXXXXX) 188 LC 1765 1376 WT pop 0 originOffset 33 add RSS
1730 1340 MT 1730 1340 LT 1981 1340 LT 1988 1376 LT ST
1730 1412 MT 1730 1412 LT 1981 1412 LT 1988 1376 LT ST
(00000000) 705 LC 2023 1376 WT pop 0 originOffset 33 add RSS
1988 1376 MT 1988 1376 LT 1995 1340 LT 2756 1340 LT 2763 1376 LT ST
1988 1376 MT 1988 1376 LT 1995 1412 LT 2756 1412 LT 2763 1376 LT ST
(0000FFFF) 446 LC 2798 1376 WT pop 0 originOffset 33 add RSS
2763 1376 MT 2763 1376 LT 2770 1340 LT 3272 1340 LT 3279 1376 LT ST
2763 1376 MT 2763 1376 LT 2770 1412 LT 3272 1412 LT 3279 1376 LT ST
(FF00FFFF) 188 LC 3314 1376 WT pop 0 originOffset 33 add RSS
3279 1376 MT 3279 1376 LT 3286 1340 LT 3530 1340 LT 3537 1376 LT ST
3279 1376 MT 3279 1376 LT 3286 1412 LT 3530 1412 LT 3537 1376 LT ST
(FF00FF00) 705 LC 3572 1376 WT pop 0 originOffset 33 add RSS
3537 1376 MT 3537 1376 LT 3544 1340 LT 4305 1340 LT 4312 1376 LT ST
3537 1376 MT 3537 1376 LT 3544 1412 LT 4305 1412 LT 4312 1376 LT ST
(FF00FF01) 1738 LC 4347 1376 WT pop 0 originOffset 33 add RSS
4312 1376 MT 4312 1376 LT 4319 1340 LT 6113 1340 LT 6120 1376 LT ST
4312 1376 MT 4312 1376 LT 4319 1412 LT 6113 1412 LT 6120 1376 LT ST
(FF00FF00) 705 LC 6155 1376 WT pop 0 originOffset 33 add RSS
6120 1376 MT 6120 1376 LT 6127 1340 LT 6895 1340 LT ST
6120 1376 MT 6120 1376 LT 6127 1412 LT 6895 1412 LT ST
(XXXXXXXX) 188 LC 1765 1496 WT pop 0 originOffset 33 add RSS
1730 1460 MT 1730 1460 LT 1981 1460 LT 1988 1496 LT ST
1730 1532 MT 1730 1532 LT 1981 1532 LT 1988 1496 LT ST
(00000000) 1996 LC 2023 1496 WT pop 0 originOffset 33 add RSS
1988 1496 MT 1988 1496 LT 1995 1460 LT 4047 1460 LT 4054 1496 LT ST
1988 1496 MT 1988 1496 LT 1995 1532 LT 4047 1532 LT 4054 1496 LT ST
(00000001) 2771 LC 4089 1496 WT pop 0 originOffset 33 add RSS
4054 1496 MT 4054 1496 LT 4061 1460 LT 6895 1460 LT ST
4054 1496 MT 4054 1496 LT 4061 1532 LT 6895 1532 LT ST
% draw timeline
(0 ps) 9999 LC 1730 4707 WT TS RSS
1743 4599 MT 1743 4636 LS
1742 4618 MT 1744 4618 LS
1795 4599 MT 1795 4636 LS
1859 4599 MT 1859 4636 LS
1924 4599 MT 1924 4636 LS
1988 4599 MT 1988 4636 LS
2053 4599 MT 2053 4636 LS
2117 4599 MT 2117 4636 LS
2182 4599 MT 2182 4636 LS
2247 4599 MT 2247 4636 LS
2311 4599 MT 2311 4636 LS
2375 4572 MT 2375 4636 LS
2440 4599 MT 2440 4636 LS
2504 4599 MT 2504 4636 LS
2569 4599 MT 2569 4636 LS
2633 4599 MT 2633 4636 LS
2698 4599 MT 2698 4636 LS
2762 4599 MT 2762 4636 LS
2827 4599 MT 2827 4636 LS
2892 4599 MT 2892 4636 LS
2956 4599 MT 2956 4636 LS
3021 4572 MT 3021 4636 LS
(100000 ps) 9999 LC 3021 4707 WT TS RSS
3086 4599 MT 3086 4636 LS
3150 4599 MT 3150 4636 LS
3215 4599 MT 3215 4636 LS
3279 4599 MT 3279 4636 LS
3344 4599 MT 3344 4636 LS
3408 4599 MT 3408 4636 LS
3473 4599 MT 3473 4636 LS
3538 4599 MT 3538 4636 LS
3602 4599 MT 3602 4636 LS
3666 4572 MT 3666 4636 LS
3731 4599 MT 3731 4636 LS
3795 4599 MT 3795 4636 LS
3860 4599 MT 3860 4636 LS
3924 4599 MT 3924 4636 LS
3989 4599 MT 3989 4636 LS
4053 4599 MT 4053 4636 LS
4118 4599 MT 4118 4636 LS
4183 4599 MT 4183 4636 LS
4247 4599 MT 4247 4636 LS
4312 4572 MT 4312 4636 LS
(200000 ps) 9999 LC 4312 4707 WT TS RSS
4377 4599 MT 4377 4636 LS
4441 4599 MT 4441 4636 LS
4506 4599 MT 4506 4636 LS
4570 4599 MT 4570 4636 LS
4635 4599 MT 4635 4636 LS
4699 4599 MT 4699 4636 LS
4764 4599 MT 4764 4636 LS
4829 4599 MT 4829 4636 LS
4893 4599 MT 4893 4636 LS
4958 4572 MT 4958 4636 LS
5023 4599 MT 5023 4636 LS
5087 4599 MT 5087 4636 LS
5152 4599 MT 5152 4636 LS
5216 4599 MT 5216 4636 LS
5281 4599 MT 5281 4636 LS
5345 4599 MT 5345 4636 LS
5410 4599 MT 5410 4636 LS
5475 4599 MT 5475 4636 LS
5539 4599 MT 5539 4636 LS
5603 4572 MT 5603 4636 LS
(300000 ps) 9999 LC 5603 4707 WT TS RSS
5668 4599 MT 5668 4636 LS
5732 4599 MT 5732 4636 LS
5797 4599 MT 5797 4636 LS
5861 4599 MT 5861 4636 LS
5926 4599 MT 5926 4636 LS
5990 4599 MT 5990 4636 LS
6055 4599 MT 6055 4636 LS
6120 4599 MT 6120 4636 LS
6184 4599 MT 6184 4636 LS
6249 4572 MT 6249 4636 LS
6314 4599 MT 6314 4636 LS
6378 4599 MT 6378 4636 LS
6443 4599 MT 6443 4636 LS
6507 4599 MT 6507 4636 LS
6572 4599 MT 6572 4636 LS
6636 4599 MT 6636 4636 LS
6701 4599 MT 6701 4636 LS
6766 4599 MT 6766 4636 LS
6830 4599 MT 6830 4636 LS
6895 4572 MT 6895 4636 LS
(400000 ps) 9999 LC 6895 4707 WT TS RSS
6960 4599 MT 6960 4636 LS
7024 4599 MT 7024 4636 LS
7089 4599 MT 7089 4636 LS
7153 4599 MT 7153 4636 LS
7218 4599 MT 7218 4636 LS
7282 4599 MT 7282 4636 LS
7347 4599 MT 7347 4636 LS
7412 4599 MT 7412 4636 LS
7476 4599 MT 7476 4636 LS
% draw grid
2375 118 MT 2375 4572 LS
3021 118 MT 3021 4572 LS
3666 118 MT 3666 4572 LS
4312 118 MT 4312 4572 LS
4958 118 MT 4958 4572 LS
5603 118 MT 5603 4572 LS
6249 118 MT 6249 4572 LS
6895 118 MT 6895 4572 LS
% draw waveforms
(/parallel_port_tb/Clk) 9999 LC 1693 211 WT TSE RSS
2368 118 MT 2382 118 LS
3014 118 MT 3028 118 LS
3659 118 MT 3673 118 LS
4305 118 MT 4319 118 LS
4951 118 MT 4965 118 LS
5596 118 MT 5610 118 LS
6242 118 MT 6256 118 LS
6888 118 MT 6902 118 LS
1731 140 MT 1859 140 LS
1859 212 MT 1859 140 LS
1860 212 MT 1988 212 LS
1988 212 MT 1988 140 LS
1989 140 MT 2117 140 LS
2117 212 MT 2117 140 LS
2118 212 MT 2246 212 LS
2246 212 MT 2246 140 LS
2247 140 MT 2375 140 LS
2375 212 MT 2375 140 LS
2376 212 MT 2504 212 LS
2504 212 MT 2504 140 LS
2505 140 MT 2633 140 LS
2633 212 MT 2633 140 LS
2634 212 MT 2763 212 LS
2763 212 MT 2763 140 LS
2764 140 MT 2892 140 LS
2892 212 MT 2892 140 LS
2893 212 MT 3021 212 LS
3021 212 MT 3021 140 LS
3022 140 MT 3150 140 LS
3150 212 MT 3150 140 LS
3151 212 MT 3279 212 LS
3279 212 MT 3279 140 LS
3280 140 MT 3408 140 LS
3408 212 MT 3408 140 LS
3409 212 MT 3537 212 LS
3537 212 MT 3537 140 LS
3538 140 MT 3666 140 LS
3666 212 MT 3666 140 LS
3667 212 MT 3796 212 LS
3796 212 MT 3796 140 LS
3797 140 MT 3925 140 LS
3925 212 MT 3925 140 LS
3926 212 MT 4054 212 LS
4054 212 MT 4054 140 LS
4055 140 MT 4183 140 LS
4183 212 MT 4183 140 LS
4184 212 MT 4312 212 LS
4312 212 MT 4312 140 LS
4313 140 MT 4441 140 LS
4441 212 MT 4441 140 LS
4442 212 MT 4570 212 LS
4570 212 MT 4570 140 LS
4571 140 MT 4699 140 LS
4699 212 MT 4699 140 LS
4700 212 MT 4829 212 LS
4829 212 MT 4829 140 LS
4830 140 MT 4958 140 LS
4958 212 MT 4958 140 LS
4959 212 MT 5087 212 LS
5087 212 MT 5087 140 LS
5088 140 MT 5216 140 LS
5216 212 MT 5216 140 LS
5217 212 MT 5345 212 LS
5345 212 MT 5345 140 LS
5346 140 MT 5474 140 LS
5474 212 MT 5474 140 LS
5475 212 MT 5603 212 LS
5603 212 MT 5603 140 LS
5604 140 MT 5732 140 LS
5732 212 MT 5732 140 LS
5733 212 MT 5862 212 LS
5862 212 MT 5862 140 LS
5863 140 MT 5991 140 LS
5991 212 MT 5991 140 LS
5992 212 MT 6120 212 LS
6120 212 MT 6120 140 LS
6121 140 MT 6249 140 LS
6249 212 MT 6249 140 LS
6250 212 MT 6378 212 LS
6378 212 MT 6378 140 LS
6379 140 MT 6507 140 LS
6507 212 MT 6507 140 LS
6508 212 MT 6636 212 LS
6636 212 MT 6636 140 LS
6637 140 MT 6765 140 LS
6765 212 MT 6765 140 LS
6766 212 MT 6895 212 LS
6895 212 MT 6895 140 LS
(/parallel_port_tb/nReset) 9999 LC 1693 331 WT TSE RSS
2368 238 MT 2382 238 LS
3014 238 MT 3028 238 LS
3659 238 MT 3673 238 LS
4305 238 MT 4319 238 LS
4951 238 MT 4965 238 LS
5596 238 MT 5610 238 LS
6242 238 MT 6256 238 LS
6888 238 MT 6902 238 LS
1730 332 MT 1730 296 LS
1731 332 MT 2052 332 LS
2052 332 MT 2052 260 LS
2053 260 MT 6895 260 LS
6895 260 MT 6895 260 LS
(/parallel_port_tb/Address) 9999 LC 1693 451 WT TSE RSS
2368 358 MT 2382 358 LS
3014 358 MT 3028 358 LS
3659 358 MT 3673 358 LS
4305 358 MT 4319 358 LS
4951 358 MT 4965 358 LS
5596 358 MT 5610 358 LS
6242 358 MT 6256 358 LS
6888 358 MT 6902 358 LS
(X) 446 LC 1765 416 WT pop 0 originOffset 33 add RSS
1730 380 MT 1730 380 LT 2239 380 LT 2246 416 LT ST
1730 452 MT 1730 452 LT 2239 452 LT 2246 416 LT ST
(0) 705 LC 2281 416 WT pop 0 originOffset 33 add RSS
2246 416 MT 2246 416 LT 2253 380 LT 3014 380 LT 3021 416 LT ST
2246 416 MT 2246 416 LT 2253 452 LT 3014 452 LT 3021 416 LT ST
(1) 188 LC 3056 416 WT pop 0 originOffset 33 add RSS
3021 416 MT 3021 416 LT 3028 380 LT 3272 380 LT 3279 416 LT ST
3021 416 MT 3021 416 LT 3028 452 LT 3272 452 LT 3279 416 LT ST
(2) 188 LC 3314 416 WT pop 0 originOffset 33 add RSS
3279 416 MT 3279 416 LT 3286 380 LT 3530 380 LT 3537 416 LT ST
3279 416 MT 3279 416 LT 3286 452 LT 3530 452 LT 3537 416 LT ST
(0) 189 LC 3572 416 WT pop 0 originOffset 33 add RSS
3537 416 MT 3537 416 LT 3544 380 LT 3789 380 LT 3796 416 LT ST
3537 416 MT 3537 416 LT 3544 452 LT 3789 452 LT 3796 416 LT ST
(3) 188 LC 3831 416 WT pop 0 originOffset 33 add RSS
3796 416 MT 3796 416 LT 3803 380 LT 4047 380 LT 4054 416 LT ST
3796 416 MT 3796 416 LT 3803 452 LT 4047 452 LT 4054 416 LT ST
(1) 188 LC 4089 416 WT pop 0 originOffset 33 add RSS
4054 416 MT 4054 416 LT 4061 380 LT 4305 380 LT 4312 416 LT ST
4054 416 MT 4054 416 LT 4061 452 LT 4305 452 LT 4312 416 LT ST
(0) 1480 LC 4347 416 WT pop 0 originOffset 33 add RSS
4312 416 MT 4312 416 LT 4319 380 LT 5855 380 LT 5862 416 LT ST
4312 416 MT 4312 416 LT 4319 452 LT 5855 452 LT 5862 416 LT ST
(2) 188 LC 5897 416 WT pop 0 originOffset 33 add RSS
5862 416 MT 5862 416 LT 5869 380 LT 6113 380 LT 6120 416 LT ST
5862 416 MT 5862 416 LT 5869 452 LT 6113 452 LT 6120 416 LT ST
(0) 705 LC 6155 416 WT pop 0 originOffset 33 add RSS
6120 416 MT 6120 416 LT 6127 380 LT 6895 380 LT ST
6120 416 MT 6120 416 LT 6127 452 LT 6895 452 LT ST
(/parallel_port_tb/ChipSelect) 9999 LC 1693 571 WT TSE RSS
2368 478 MT 2382 478 LS
3014 478 MT 3028 478 LS
3659 478 MT 3673 478 LS
4305 478 MT 4319 478 LS
4951 478 MT 4965 478 LS
5596 478 MT 5610 478 LS
6242 478 MT 6256 478 LS
6888 478 MT 6902 478 LS
1731 536 MT 2246 536 LS
2246 572 MT 2246 536 LS
2247 572 MT 2504 572 LS
2504 572 MT 2504 500 LS
2505 500 MT 4312 500 LS
4312 572 MT 4312 500 LS
4313 572 MT 5862 572 LS
5862 572 MT 5862 500 LS
5863 500 MT 6120 500 LS
6120 572 MT 6120 500 LS
6121 572 MT 6895 572 LS
6895 572 MT 6895 572 LS
(/parallel_port_tb/Read_en) 9999 LC 1693 691 WT TSE RSS
2368 598 MT 2382 598 LS
3014 598 MT 3028 598 LS
3659 598 MT 3673 598 LS
4305 598 MT 4319 598 LS
4951 598 MT 4965 598 LS
5596 598 MT 5610 598 LS
6242 598 MT 6256 598 LS
6888 598 MT 6902 598 LS
1731 656 MT 2246 656 LS
2246 692 MT 2246 656 LS
2247 692 MT 2763 692 LS
2763 692 MT 2763 620 LS
2764 620 MT 3021 620 LS
3021 692 MT 3021 620 LS
3022 692 MT 3537 692 LS
3537 692 MT 3537 620 LS
3538 620 MT 3796 620 LS
3796 692 MT 3796 620 LS
3797 692 MT 6895 692 LS
6895 692 MT 6895 692 LS
(/parallel_port_tb/Write_en) 9999 LC 1693 811 WT TSE RSS
2368 718 MT 2382 718 LS
3014 718 MT 3028 718 LS
3659 718 MT 3673 718 LS
4305 718 MT 4319 718 LS
4951 718 MT 4965 718 LS
5596 718 MT 5610 718 LS
6242 718 MT 6256 718 LS
6888 718 MT 6902 718 LS
1731 776 MT 2246 776 LS
2246 812 MT 2246 776 LS
2247 812 MT 2504 812 LS
2504 812 MT 2504 740 LS
2505 740 MT 2763 740 LS
2763 812 MT 2763 740 LS
2764 812 MT 3021 812 LS
3021 812 MT 3021 740 LS
3022 740 MT 3537 740 LS
3537 812 MT 3537 740 LS
3538 812 MT 3796 812 LS
3796 812 MT 3796 740 LS
3797 740 MT 4312 740 LS
4312 812 MT 4312 740 LS
4313 812 MT 5862 812 LS
5862 812 MT 5862 740 LS
5863 740 MT 6120 740 LS
6120 812 MT 6120 740 LS
6121 812 MT 6895 812 LS
6895 812 MT 6895 812 LS
(/parallel_port_tb/ReadData) 9999 LC 1693 931 WT TSE RSS
2368 838 MT 2382 838 LS
3014 838 MT 3028 838 LS
3659 838 MT 3673 838 LS
4305 838 MT 4319 838 LS
4951 838 MT 4965 838 LS
5596 838 MT 5610 838 LS
6242 838 MT 6256 838 LS
6888 838 MT 6902 838 LS
(XXXXXXXX) 446 LC 1765 896 WT pop 0 originOffset 33 add RSS
1730 860 MT 1730 860 LT 2239 860 LT 2246 896 LT ST
1730 932 MT 1730 932 LT 2239 932 LT 2246 896 LT ST
(00000000) 705 LC 2281 896 WT pop 0 originOffset 33 add RSS
2246 896 MT 2246 896 LT 2253 860 LT 3014 860 LT 3021 896 LT ST
2246 896 MT 2246 896 LT 2253 932 LT 3014 932 LT 3021 896 LT ST
(0000FFFF) 188 LC 3056 896 WT pop 0 originOffset 33 add RSS
3021 896 MT 3021 896 LT 3028 860 LT 3272 860 LT 3279 896 LT ST
3021 896 MT 3021 896 LT 3028 932 LT 3272 932 LT 3279 896 LT ST
(00000000) 447 LC 3314 896 WT pop 0 originOffset 33 add RSS
3279 896 MT 3279 896 LT 3286 860 LT 3789 860 LT 3796 896 LT ST
3279 896 MT 3279 896 LT 3286 932 LT 3789 932 LT 3796 896 LT ST
(FF00FF00) 188 LC 3831 896 WT pop 0 originOffset 33 add RSS
3796 896 MT 3796 896 LT 3803 860 LT 4047 860 LT 4054 896 LT ST
3796 896 MT 3796 896 LT 3803 932 LT 4047 932 LT 4054 896 LT ST
(00000000) 2771 LC 4089 896 WT pop 0 originOffset 33 add RSS
4054 896 MT 4054 896 LT 4061 860 LT 6895 860 LT ST
4054 896 MT 4054 896 LT 4061 932 LT 6895 932 LT ST
(/parallel_port_tb/WriteData) 9999 LC 1693 1051 WT TSE RSS
2368 958 MT 2382 958 LS
3014 958 MT 3028 958 LS
3659 958 MT 3673 958 LS
4305 958 MT 4319 958 LS
4951 958 MT 4965 958 LS
5596 958 MT 5610 958 LS
6242 958 MT 6256 958 LS
6888 958 MT 6902 958 LS
(XXXXXXXX) 446 LC 1765 1016 WT pop 0 originOffset 33 add RSS
1730 980 MT 1730 980 LT 2239 980 LT 2246 1016 LT ST
1730 1052 MT 1730 1052 LT 2239 1052 LT 2246 1016 LT ST
(00000000) 188 LC 2281 1016 WT pop 0 originOffset 33 add RSS
2246 1016 MT 2246 1016 LT 2253 980 LT 2497 980 LT 2504 1016 LT ST
2246 1016 MT 2246 1016 LT 2253 1052 LT 2497 1052 LT 2504 1016 LT ST
(0000FFFF) 189 LC 2539 1016 WT pop 0 originOffset 33 add RSS
2504 1016 MT 2504 1016 LT 2511 980 LT 2756 980 LT 2763 1016 LT ST
2504 1016 MT 2504 1016 LT 2511 1052 LT 2756 1052 LT 2763 1016 LT ST
(00000000) 188 LC 2798 1016 WT pop 0 originOffset 33 add RSS
2763 1016 MT 2763 1016 LT 2770 980 LT 3014 980 LT 3021 1016 LT ST
2763 1016 MT 2763 1016 LT 2770 1052 LT 3014 1052 LT 3021 1016 LT ST
(FF000000) 188 LC 3056 1016 WT pop 0 originOffset 33 add RSS
3021 1016 MT 3021 1016 LT 3028 980 LT 3272 980 LT 3279 1016 LT ST
3021 1016 MT 3021 1016 LT 3028 1052 LT 3272 1052 LT 3279 1016 LT ST
(000000FF) 188 LC 3314 1016 WT pop 0 originOffset 33 add RSS
3279 1016 MT 3279 1016 LT 3286 980 LT 3530 980 LT 3537 1016 LT ST
3279 1016 MT 3279 1016 LT 3286 1052 LT 3530 1052 LT 3537 1016 LT ST
(00000000) 189 LC 3572 1016 WT pop 0 originOffset 33 add RSS
3537 1016 MT 3537 1016 LT 3544 980 LT 3789 980 LT 3796 1016 LT ST
3537 1016 MT 3537 1016 LT 3544 1052 LT 3789 1052 LT 3796 1016 LT ST
(00000001) 446 LC 3831 1016 WT pop 0 originOffset 33 add RSS
3796 1016 MT 3796 1016 LT 3803 980 LT 4305 980 LT 4312 1016 LT ST
3796 1016 MT 3796 1016 LT 3803 1052 LT 4305 1052 LT 4312 1016 LT ST
(00000000) 1480 LC 4347 1016 WT pop 0 originOffset 33 add RSS
4312 1016 MT 4312 1016 LT 4319 980 LT 5855 980 LT 5862 1016 LT ST
4312 1016 MT 4312 1016 LT 4319 1052 LT 5855 1052 LT 5862 1016 LT ST
(00000001) 188 LC 5897 1016 WT pop 0 originOffset 33 add RSS
5862 1016 MT 5862 1016 LT 5869 980 LT 6113 980 LT 6120 1016 LT ST
5862 1016 MT 5862 1016 LT 5869 1052 LT 6113 1052 LT 6120 1016 LT ST
(00000000) 705 LC 6155 1016 WT pop 0 originOffset 33 add RSS
6120 1016 MT 6120 1016 LT 6127 980 LT 6895 980 LT ST
6120 1016 MT 6120 1016 LT 6127 1052 LT 6895 1052 LT ST
(/parallel_port_tb/IRQ) 9999 LC 1693 1171 WT TSE RSS
2368 1078 MT 2382 1078 LS
3014 1078 MT 3028 1078 LS
3659 1078 MT 3673 1078 LS
4305 1078 MT 4319 1078 LS
4951 1078 MT 4965 1078 LS
5596 1078 MT 5610 1078 LS
6242 1078 MT 6256 1078 LS
6888 1078 MT 6902 1078 LS
1731 1136 MT 1988 1136 LS
1988 1172 MT 1988 1136 LS
1989 1172 MT 4570 1172 LS
4570 1172 MT 4570 1100 LS
4571 1100 MT 6378 1100 LS
6378 1172 MT 6378 1100 LS
6379 1172 MT 6895 1172 LS
6895 1172 MT 6895 1172 LS
(/parallel_port_tb/ParPort) 9999 LC 1693 1291 WT TSE RSS
2368 1198 MT 2382 1198 LS
3014 1198 MT 3028 1198 LS
3659 1198 MT 3673 1198 LS
4305 1198 MT 4319 1198 LS
4951 1198 MT 4965 1198 LS
5596 1198 MT 5610 1198 LS
6242 1198 MT 6256 1198 LS
6888 1198 MT 6902 1198 LS
(XXXXXXXX) 188 LC 1765 1256 WT pop 0 originOffset 33 add RSS
1730 1220 MT 1730 1220 LT 1981 1220 LT 1988 1256 LT ST
1730 1292 MT 1730 1292 LT 1981 1292 LT 1988 1256 LT ST
(00000000) 705 LC 2023 1256 WT pop 0 originOffset 33 add RSS
1988 1256 MT 1988 1256 LT 1995 1220 LT 2756 1220 LT 2763 1256 LT ST
1988 1256 MT 1988 1256 LT 1995 1292 LT 2756 1292 LT 2763 1256 LT ST
(0000FFFF) 446 LC 2798 1256 WT pop 0 originOffset 33 add RSS
2763 1256 MT 2763 1256 LT 2770 1220 LT 3272 1220 LT 3279 1256 LT ST
2763 1256 MT 2763 1256 LT 2770 1292 LT 3272 1292 LT 3279 1256 LT ST
(FF00FFFF) 188 LC 3314 1256 WT pop 0 originOffset 33 add RSS
3279 1256 MT 3279 1256 LT 3286 1220 LT 3530 1220 LT 3537 1256 LT ST
3279 1256 MT 3279 1256 LT 3286 1292 LT 3530 1292 LT 3537 1256 LT ST
(FF00FF00) 705 LC 3572 1256 WT pop 0 originOffset 33 add RSS
3537 1256 MT 3537 1256 LT 3544 1220 LT 4305 1220 LT 4312 1256 LT ST
3537 1256 MT 3537 1256 LT 3544 1292 LT 4305 1292 LT 4312 1256 LT ST
(FF00FF01) 1738 LC 4347 1256 WT pop 0 originOffset 33 add RSS
4312 1256 MT 4312 1256 LT 4319 1220 LT 6113 1220 LT 6120 1256 LT ST
4312 1256 MT 4312 1256 LT 4319 1292 LT 6113 1292 LT 6120 1256 LT ST
(FF00FF00) 705 LC 6155 1256 WT pop 0 originOffset 33 add RSS
6120 1256 MT 6120 1256 LT 6127 1220 LT 6895 1220 LT ST
6120 1256 MT 6120 1256 LT 6127 1292 LT 6895 1292 LT ST
(/parallel_port_tb/DUT/iReg) 9999 LC 1693 1411 WT TSE RSS
2368 1318 MT 2382 1318 LS
3014 1318 MT 3028 1318 LS
3659 1318 MT 3673 1318 LS
4305 1318 MT 4319 1318 LS
4951 1318 MT 4965 1318 LS
5596 1318 MT 5610 1318 LS
6242 1318 MT 6256 1318 LS
6888 1318 MT 6902 1318 LS
(XXXXXXXX) 188 LC 1765 1376 WT pop 0 originOffset 33 add RSS
1730 1340 MT 1730 1340 LT 1981 1340 LT 1988 1376 LT ST
1730 1412 MT 1730 1412 LT 1981 1412 LT 1988 1376 LT ST
(00000000) 705 LC 2023 1376 WT pop 0 originOffset 33 add RSS
1988 1376 MT 1988 1376 LT 1995 1340 LT 2756 1340 LT 2763 1376 LT ST
1988 1376 MT 1988 1376 LT 1995 1412 LT 2756 1412 LT 2763 1376 LT ST
(0000FFFF) 446 LC 2798 1376 WT pop 0 originOffset 33 add RSS
2763 1376 MT 2763 1376 LT 2770 1340 LT 3272 1340 LT 3279 1376 LT ST
2763 1376 MT 2763 1376 LT 2770 1412 LT 3272 1412 LT 3279 1376 LT ST
(FF00FFFF) 188 LC 3314 1376 WT pop 0 originOffset 33 add RSS
3279 1376 MT 3279 1376 LT 3286 1340 LT 3530 1340 LT 3537 1376 LT ST
3279 1376 MT 3279 1376 LT 3286 1412 LT 3530 1412 LT 3537 1376 LT ST
(FF00FF00) 705 LC 3572 1376 WT pop 0 originOffset 33 add RSS
3537 1376 MT 3537 1376 LT 3544 1340 LT 4305 1340 LT 4312 1376 LT ST
3537 1376 MT 3537 1376 LT 3544 1412 LT 4305 1412 LT 4312 1376 LT ST
(FF00FF01) 1738 LC 4347 1376 WT pop 0 originOffset 33 add RSS
4312 1376 MT 4312 1376 LT 4319 1340 LT 6113 1340 LT 6120 1376 LT ST
4312 1376 MT 4312 1376 LT 4319 1412 LT 6113 1412 LT 6120 1376 LT ST
(FF00FF00) 705 LC 6155 1376 WT pop 0 originOffset 33 add RSS
6120 1376 MT 6120 1376 LT 6127 1340 LT 6895 1340 LT ST
6120 1376 MT 6120 1376 LT 6127 1412 LT 6895 1412 LT ST
(/parallel_port_tb/DUT/iIRQEnReg) 9999 LC 1693 1531 WT TSE RSS
2368 1438 MT 2382 1438 LS
3014 1438 MT 3028 1438 LS
3659 1438 MT 3673 1438 LS
4305 1438 MT 4319 1438 LS
4951 1438 MT 4965 1438 LS
5596 1438 MT 5610 1438 LS
6242 1438 MT 6256 1438 LS
6888 1438 MT 6902 1438 LS
(XXXXXXXX) 188 LC 1765 1496 WT pop 0 originOffset 33 add RSS
1730 1460 MT 1730 1460 LT 1981 1460 LT 1988 1496 LT ST
1730 1532 MT 1730 1532 LT 1981 1532 LT 1988 1496 LT ST
(00000000) 1996 LC 2023 1496 WT pop 0 originOffset 33 add RSS
1988 1496 MT 1988 1496 LT 1995 1460 LT 4047 1460 LT 4054 1496 LT ST
1988 1496 MT 1988 1496 LT 1995 1532 LT 4047 1532 LT 4054 1496 LT ST
(00000001) 2771 LC 4089 1496 WT pop 0 originOffset 33 add RSS
4054 1496 MT 4054 1496 LT 4061 1460 LT 6895 1460 LT ST
4054 1496 MT 4054 1496 LT 4061 1532 LT 6895 1532 LT ST
% draw footer
(Entity:parallel_port_tb  Architecture:tb  Date: Thu Apr 13 14:12:19 CEST 2017   Row: 1 Page: 1) 9999 LC 118 4841 WT TSW RSS
grestore
showpage
%%EOF
