%!PS-Adobe-3.0
%%Creator: Model Technology ModelSim - INTEL FPGA STARTER EDITION vsim 10.5b Simulator 2016.10 Oct  5 2016
%%Title: //cern.ch/dfs/Users/m/msilvaol/Desktop/Timer_sim.ps
%%CreationDate: 2017-04-13 02:22:49 pm
%%DocumentData: Clean8Bit
%%DocumentNeededResources: font Helvetica
%%Orientation: Landscape
%%PageOrder: ascend
%%Pages: 1
%%EndComments
%%BeginSetup
%%BeginFeature: *PageSize 8.2677165354330704x11.69291338582677
<< /PageSize [595.27559055118104 841.88976377952747]
/ImagingBBox null
>> setpagedevice
%%EndFeature
%%EndSetup
%%Page: 1 1
gsave
90 rotate 0.12 dup neg scale
% dump string table
/NP {newpath} def/SD {setdash} def/CL {setrgbcolor} def/GR {setgray} def
/SX {exch LEdge sub XScale mul MaxLabelWidth add LMargin add LEdge LabelWidth sub add exch} def/CSX {exch dup LabelWidth gt {exch SX} {exch} ifelse} def
/MT {SX moveto} def/LS {SX lineto stroke} def/LT {SX lineto} def/LFS {SX lineto fill stroke} def/RSS {rmoveto show stroke} def/ST {stroke} def/WT {CSX moveto dup stringwidth pop} def/TSW {pop 0 originOffset} def
/TSE {MaxLabelWidth LabelWidth sub LMargin add 0 rmoveto neg originOffset} def/TS {-2 div originOffset CSX} def
/MLW {stringwidth pop dup MaxLabelWidth gt {/MaxLabelWidth exch def}{pop} ifelse XS} def
/XS {/XScale LabelWidth LMargin sub MaxLabelWidth LEdge LabelWidth sub add sub REdge LEdge sub div 1 add def} def
/ARC {5 -2 roll SX 5 2 roll arc} def/LC {1 index stringwidth pop lt {pop ()} if} def
/SW {stringwidth pop} def
/ESTR {   dup 3 add string   /CurrentStr exch def   exch 0 2 index getinterval   0 1 3 index 1 sub {     dup     2 index exch get exch     CurrentStr exch 3 -1 roll put   } for   pop   dup 1 2 2 index add {     CurrentStr exch 46 put   } for   pop} def
/LC {   exch  dup dup /CurrentStr exch def   SW 2 index gt {     CurrentStr length     dup     {       2 div cvi       3 index       CurrentStr SW       sub       dup 0 lt {         1 index         4 -1 roll         exch sub         3 1 roll       }       {         dup 5 index gt {           1 index 4 -1 roll add 3 1 roll         }         {           exit         } ifelse       } ifelse       3 index 2 index ESTR       1 index 0 eq {         exit       } if       pop     } loop     pop pop pop pop pop     CurrentStr   }   {     CurrentStr   } ifelse} def
/XScale 1 def/MaxLabelWidth 0 def/LMargin 118 def/LEdge 1396 def/REdge 6660 def/LabelWidth 1359 def
/Helvetica findfont [66 0 0 -66 0 0] makefont setfont
/originOffset   currentfont   /FontBBox get 1 get   currentfont  /FontMatrix get 3 get   mul   currentfont   /FontType get   42 eq {     1000000 div   } {     neg   } ifelse def
(/timer_tb/DUT/Clk) MLW
(/timer_tb/DUT/nReset) MLW
(/timer_tb/DUT/Address) MLW
(/timer_tb/DUT/ChipSelect) MLW
(/timer_tb/DUT/Read_en) MLW
(/timer_tb/DUT/Write_en) MLW
(/timer_tb/DUT/ReadData) MLW
(/timer_tb/DUT/WriteData) MLW
(/timer_tb/DUT/IRQ) MLW
(/timer_tb/DUT/cnt) MLW
(/timer_tb/DUT/iRegEna) MLW
(/timer_tb/DUT/iRegIrq) MLW
(/timer_tb/DUT/iRegIrqEna) MLW
% draw waveform shading
[] 0 SD
3 setlinewidth
0 setlinejoin
2 setlinecap
0 0 0 CL
1397 140 MT 1441 140 LS
1441 212 MT 1441 140 LS
1442 212 MT 1487 212 LS
1487 212 MT 1487 140 LS
1488 140 MT 1533 140 LS
1533 212 MT 1533 140 LS
1534 212 MT 1579 212 LS
1579 212 MT 1579 140 LS
1580 140 MT 1625 140 LS
1625 212 MT 1625 140 LS
1626 212 MT 1670 212 LS
1670 212 MT 1670 140 LS
1671 140 MT 1716 140 LS
1716 212 MT 1716 140 LS
1717 212 MT 1762 212 LS
1762 212 MT 1762 140 LS
1763 140 MT 1808 140 LS
1808 212 MT 1808 140 LS
1809 212 MT 1854 212 LS
1854 212 MT 1854 140 LS
1855 140 MT 1900 140 LS
1900 212 MT 1900 140 LS
1901 212 MT 1945 212 LS
1945 212 MT 1945 140 LS
1946 140 MT 1991 140 LS
1991 212 MT 1991 140 LS
1992 212 MT 2037 212 LS
2037 212 MT 2037 140 LS
2038 140 MT 2083 140 LS
2083 212 MT 2083 140 LS
2084 212 MT 2129 212 LS
2129 212 MT 2129 140 LS
2130 140 MT 2175 140 LS
2175 212 MT 2175 140 LS
2176 212 MT 2220 212 LS
2220 212 MT 2220 140 LS
2221 140 MT 2266 140 LS
2266 212 MT 2266 140 LS
2267 212 MT 2312 212 LS
2312 212 MT 2312 140 LS
2313 140 MT 2358 140 LS
2358 212 MT 2358 140 LS
2359 212 MT 2404 212 LS
2404 212 MT 2404 140 LS
2405 140 MT 2449 140 LS
2449 212 MT 2449 140 LS
2450 212 MT 2495 212 LS
2495 212 MT 2495 140 LS
2496 140 MT 2541 140 LS
2541 212 MT 2541 140 LS
2542 212 MT 2587 212 LS
2587 212 MT 2587 140 LS
2588 140 MT 2633 140 LS
2633 212 MT 2633 140 LS
2634 212 MT 2679 212 LS
2679 212 MT 2679 140 LS
2680 140 MT 2724 140 LS
2724 212 MT 2724 140 LS
2725 212 MT 2770 212 LS
2770 212 MT 2770 140 LS
2771 140 MT 2816 140 LS
2816 212 MT 2816 140 LS
2817 212 MT 2862 212 LS
2862 212 MT 2862 140 LS
2863 140 MT 2908 140 LS
2908 212 MT 2908 140 LS
2909 212 MT 2954 212 LS
2954 212 MT 2954 140 LS
2955 140 MT 2999 140 LS
2999 212 MT 2999 140 LS
3000 212 MT 3045 212 LS
3045 212 MT 3045 140 LS
3046 140 MT 3091 140 LS
3091 212 MT 3091 140 LS
3092 212 MT 3137 212 LS
3137 212 MT 3137 140 LS
3138 140 MT 3183 140 LS
3183 212 MT 3183 140 LS
3184 212 MT 3229 212 LS
3229 212 MT 3229 140 LS
3230 140 MT 3274 140 LS
3274 212 MT 3274 140 LS
3275 212 MT 3320 212 LS
3320 212 MT 3320 140 LS
3321 140 MT 3366 140 LS
3366 212 MT 3366 140 LS
3367 212 MT 3412 212 LS
3412 212 MT 3412 140 LS
3413 140 MT 3458 140 LS
3458 212 MT 3458 140 LS
3459 212 MT 3503 212 LS
3503 212 MT 3503 140 LS
3504 140 MT 3549 140 LS
3549 212 MT 3549 140 LS
3550 212 MT 3595 212 LS
3595 212 MT 3595 140 LS
3596 140 MT 3641 140 LS
3641 212 MT 3641 140 LS
3642 212 MT 3687 212 LS
3687 212 MT 3687 140 LS
3688 140 MT 3733 140 LS
3733 212 MT 3733 140 LS
3734 212 MT 3778 212 LS
3778 212 MT 3778 140 LS
3779 140 MT 3824 140 LS
3824 212 MT 3824 140 LS
3825 212 MT 3870 212 LS
3870 212 MT 3870 140 LS
3871 140 MT 3916 140 LS
3916 212 MT 3916 140 LS
3917 212 MT 3962 212 LS
3962 212 MT 3962 140 LS
3963 140 MT 4008 140 LS
4008 212 MT 4008 140 LS
4009 212 MT 4053 212 LS
4053 212 MT 4053 140 LS
4054 140 MT 4099 140 LS
4099 212 MT 4099 140 LS
4100 212 MT 4145 212 LS
4145 212 MT 4145 140 LS
4146 140 MT 4191 140 LS
4191 212 MT 4191 140 LS
4192 212 MT 4237 212 LS
4237 212 MT 4237 140 LS
4238 140 MT 4282 140 LS
4282 212 MT 4282 140 LS
4283 212 MT 4328 212 LS
4328 212 MT 4328 140 LS
4329 140 MT 4374 140 LS
4374 212 MT 4374 140 LS
4375 212 MT 4420 212 LS
4420 212 MT 4420 140 LS
4421 140 MT 4466 140 LS
4466 212 MT 4466 140 LS
4467 212 MT 4512 212 LS
4512 212 MT 4512 140 LS
4513 140 MT 4557 140 LS
4557 212 MT 4557 140 LS
4558 212 MT 4603 212 LS
4603 212 MT 4603 140 LS
4604 140 MT 4649 140 LS
4649 212 MT 4649 140 LS
4650 212 MT 4695 212 LS
4695 212 MT 4695 140 LS
4696 140 MT 4741 140 LS
4741 212 MT 4741 140 LS
4742 212 MT 4787 212 LS
4787 212 MT 4787 140 LS
4788 140 MT 4832 140 LS
4832 212 MT 4832 140 LS
4833 212 MT 4878 212 LS
4878 212 MT 4878 140 LS
4879 140 MT 4924 140 LS
4924 212 MT 4924 140 LS
4925 212 MT 4970 212 LS
4970 212 MT 4970 140 LS
4971 140 MT 5016 140 LS
5016 212 MT 5016 140 LS
5017 212 MT 5062 212 LS
5062 212 MT 5062 140 LS
5063 140 MT 5107 140 LS
5107 212 MT 5107 140 LS
5108 212 MT 5153 212 LS
5153 212 MT 5153 140 LS
5154 140 MT 5199 140 LS
5199 212 MT 5199 140 LS
5200 212 MT 5245 212 LS
5245 212 MT 5245 140 LS
5246 140 MT 5291 140 LS
5291 212 MT 5291 140 LS
5292 212 MT 5336 212 LS
5336 212 MT 5336 140 LS
5337 140 MT 5382 140 LS
5382 212 MT 5382 140 LS
5383 212 MT 5428 212 LS
5428 212 MT 5428 140 LS
5429 140 MT 5474 140 LS
5474 212 MT 5474 140 LS
5475 212 MT 5520 212 LS
5520 212 MT 5520 140 LS
5521 140 MT 5566 140 LS
5566 212 MT 5566 140 LS
5567 212 MT 5611 212 LS
5611 212 MT 5611 140 LS
5612 140 MT 5657 140 LS
5657 212 MT 5657 140 LS
5658 212 MT 5703 212 LS
5703 212 MT 5703 140 LS
5704 140 MT 5749 140 LS
5749 212 MT 5749 140 LS
5750 212 MT 5795 212 LS
5795 212 MT 5795 140 LS
5796 140 MT 5841 140 LS
5841 212 MT 5841 140 LS
5842 212 MT 5886 212 LS
5886 212 MT 5886 140 LS
5887 140 MT 5932 140 LS
5932 212 MT 5932 140 LS
5933 212 MT 5978 212 LS
5978 212 MT 5978 140 LS
5979 140 MT 6024 140 LS
6024 212 MT 6024 140 LS
6025 212 MT 6070 212 LS
6070 212 MT 6070 140 LS
6071 140 MT 6115 140 LS
6115 212 MT 6115 140 LS
6116 212 MT 6161 212 LS
6161 212 MT 6161 140 LS
6162 140 MT 6207 140 LS
6207 212 MT 6207 140 LS
6208 212 MT 6253 212 LS
6253 212 MT 6253 140 LS
6254 140 MT 6299 140 LS
6299 212 MT 6299 140 LS
6300 212 MT 6345 212 LS
6345 212 MT 6345 140 LS
6346 140 MT 6390 140 LS
6390 212 MT 6390 140 LS
6391 212 MT 6436 212 LS
6436 212 MT 6436 140 LS
6437 140 MT 6482 140 LS
6482 212 MT 6482 140 LS
6483 212 MT 6528 212 LS
6528 212 MT 6528 140 LS
6529 140 MT 6574 140 LS
6574 212 MT 6574 140 LS
6575 212 MT 6620 212 LS
6620 212 MT 6620 140 LS
6621 140 MT 6665 140 LS
6665 212 MT 6665 140 LS
6666 212 MT 6711 212 LS
6711 212 MT 6711 140 LS
6712 140 MT 6757 140 LS
6757 212 MT 6757 140 LS
6758 212 MT 6803 212 LS
6803 212 MT 6803 140 LS
6804 140 MT 6849 140 LS
6849 212 MT 6849 140 LS
6850 212 MT 6895 212 LS
6895 212 MT 6895 140 LS
1396 332 MT 1396 296 LS
1397 332 MT 1510 332 LS
1510 332 MT 1510 260 LS
1511 260 MT 6895 260 LS
6895 260 MT 6895 260 LS
(X) 113 LC 1431 416 WT pop 0 originOffset 33 add RSS
1396 380 MT 1396 380 LT 1572 380 LT 1579 416 LT ST
1396 452 MT 1396 452 LT 1572 452 LT 1579 416 LT ST
(0) 21 LC 1614 416 WT pop 0 originOffset 33 add RSS
1579 416 MT 1579 416 LT 1586 380 LT 1663 380 LT 1670 416 LT ST
1579 416 MT 1579 416 LT 1586 452 LT 1663 452 LT 1670 416 LT ST
(1) 22 LC 1705 416 WT pop 0 originOffset 33 add RSS
1670 416 MT 1670 416 LT 1677 380 LT 1755 380 LT 1762 416 LT ST
1670 416 MT 1670 416 LT 1677 452 LT 1755 452 LT 1762 416 LT ST
(0) 938 LC 1797 416 WT pop 0 originOffset 33 add RSS
1762 416 MT 1762 416 LT 1769 380 LT 2763 380 LT 2770 416 LT ST
1762 416 MT 1762 416 LT 1769 452 LT 2763 452 LT 2770 416 LT ST
(1) 22 LC 2805 416 WT pop 0 originOffset 33 add RSS
2770 416 MT 2770 416 LT 2777 380 LT 2855 380 LT 2862 416 LT ST
2770 416 MT 2770 416 LT 2777 452 LT 2855 452 LT 2862 416 LT ST
(0) 571 LC 2897 416 WT pop 0 originOffset 33 add RSS
2862 416 MT 2862 416 LT 2869 380 LT 3496 380 LT 3503 416 LT ST
2862 416 MT 2862 416 LT 2869 452 LT 3496 452 LT 3503 416 LT ST
(3) 22 LC 3538 416 WT pop 0 originOffset 33 add RSS
3503 416 MT 3503 416 LT 3510 380 LT 3588 380 LT 3595 416 LT ST
3503 416 MT 3503 416 LT 3510 452 LT 3588 452 LT 3595 416 LT ST
(1) 22 LC 3630 416 WT pop 0 originOffset 33 add RSS
3595 416 MT 3595 416 LT 3602 380 LT 3680 380 LT 3687 416 LT ST
3595 416 MT 3595 416 LT 3602 452 LT 3680 452 LT 3687 416 LT ST
(0) 2404 LC 3722 416 WT pop 0 originOffset 33 add RSS
3687 416 MT 3687 416 LT 3694 380 LT 6154 380 LT 6161 416 LT ST
3687 416 MT 3687 416 LT 3694 452 LT 6154 452 LT 6161 416 LT ST
(2) 22 LC 6196 416 WT pop 0 originOffset 33 add RSS
6161 416 MT 6161 416 LT 6168 380 LT 6246 380 LT 6253 416 LT ST
6161 416 MT 6161 416 LT 6168 452 LT 6246 452 LT 6253 416 LT ST
(0) 572 LC 6288 416 WT pop 0 originOffset 33 add RSS
6253 416 MT 6253 416 LT 6260 380 LT 6895 380 LT ST
6253 416 MT 6253 416 LT 6260 452 LT 6895 452 LT ST
1397 536 MT 1579 536 LS
1579 572 MT 1579 536 LS
1580 572 MT 1670 572 LS
1670 572 MT 1670 500 LS
1671 500 MT 1762 500 LS
1762 572 MT 1762 500 LS
1763 572 MT 2770 572 LS
2770 572 MT 2770 500 LS
2771 500 MT 2862 500 LS
2862 572 MT 2862 500 LS
2863 572 MT 3412 572 LS
3412 572 MT 3412 500 LS
3413 500 MT 3687 500 LS
3687 572 MT 3687 500 LS
3688 572 MT 6070 572 LS
6070 572 MT 6070 500 LS
6071 500 MT 6253 500 LS
6253 572 MT 6253 500 LS
6254 572 MT 6895 572 LS
6895 572 MT 6895 572 LS
1397 656 MT 1579 656 LS
1579 692 MT 1579 656 LS
1580 692 MT 6070 692 LS
6070 692 MT 6070 620 LS
6071 620 MT 6161 620 LS
6161 692 MT 6161 620 LS
6162 692 MT 6895 692 LS
6895 692 MT 6895 692 LS
1397 776 MT 1579 776 LS
1579 812 MT 1579 776 LS
1580 812 MT 1670 812 LS
1670 812 MT 1670 740 LS
1671 740 MT 1762 740 LS
1762 812 MT 1762 740 LS
1763 812 MT 2770 812 LS
2770 812 MT 2770 740 LS
2771 740 MT 2862 740 LS
2862 812 MT 2862 740 LS
2863 812 MT 3412 812 LS
3412 812 MT 3412 740 LS
3413 740 MT 3687 740 LS
3687 812 MT 3687 740 LS
3688 812 MT 6161 812 LS
6161 812 MT 6161 740 LS
6162 740 MT 6253 740 LS
6253 812 MT 6253 740 LS
6254 812 MT 6895 812 LS
6895 812 MT 6895 812 LS
(XXXXXXXX) 113 LC 1431 896 WT pop 0 originOffset 33 add RSS
1396 860 MT 1396 860 LT 1572 860 LT 1579 896 LT ST
1396 932 MT 1396 932 LT 1572 932 LT 1579 896 LT ST
(00000000) 4512 LC 1614 896 WT pop 0 originOffset 33 add RSS
1579 896 MT 1579 896 LT 1586 860 LT 6154 860 LT 6161 896 LT ST
1579 896 MT 1579 896 LT 1586 932 LT 6154 932 LT 6161 896 LT ST
(00000017) 22 LC 6196 896 WT pop 0 originOffset 33 add RSS
6161 896 MT 6161 896 LT 6168 860 LT 6246 860 LT 6253 896 LT ST
6161 896 MT 6161 896 LT 6168 932 LT 6246 932 LT 6253 896 LT ST
(00000000) 572 LC 6288 896 WT pop 0 originOffset 33 add RSS
6253 896 MT 6253 896 LT 6260 860 LT 6895 860 LT ST
6253 896 MT 6253 896 LT 6260 932 LT 6895 932 LT ST
(XXXXXXXX) 113 LC 1431 1016 WT pop 0 originOffset 33 add RSS
1396 980 MT 1396 980 LT 1572 980 LT 1579 1016 LT ST
1396 1052 MT 1396 1052 LT 1572 1052 LT 1579 1016 LT ST
(00000000) 21 LC 1614 1016 WT pop 0 originOffset 33 add RSS
1579 1016 MT 1579 1016 LT 1586 980 LT 1663 980 LT 1670 1016 LT ST
1579 1016 MT 1579 1016 LT 1586 1052 LT 1663 1052 LT 1670 1016 LT ST
(00000001) 22 LC 1705 1016 WT pop 0 originOffset 33 add RSS
1670 1016 MT 1670 1016 LT 1677 980 LT 1755 980 LT 1762 1016 LT ST
1670 1016 MT 1670 1016 LT 1677 1052 LT 1755 1052 LT 1762 1016 LT ST
(00000000) 1580 LC 1797 1016 WT pop 0 originOffset 33 add RSS
1762 1016 MT 1762 1016 LT 1769 980 LT 3405 980 LT 3412 1016 LT ST
1762 1016 MT 1762 1016 LT 1769 1052 LT 3405 1052 LT 3412 1016 LT ST
(FFFFFFFD) 21 LC 3447 1016 WT pop 0 originOffset 33 add RSS
3412 1016 MT 3412 1016 LT 3419 980 LT 3496 980 LT 3503 1016 LT ST
3412 1016 MT 3412 1016 LT 3419 1052 LT 3496 1052 LT 3503 1016 LT ST
(00000001) 114 LC 3538 1016 WT pop 0 originOffset 33 add RSS
3503 1016 MT 3503 1016 LT 3510 980 LT 3680 980 LT 3687 1016 LT ST
3503 1016 MT 3503 1016 LT 3510 1052 LT 3680 1052 LT 3687 1016 LT ST
(00000000) 3138 LC 3722 1016 WT pop 0 originOffset 33 add RSS
3687 1016 MT 3687 1016 LT 3694 980 LT 6895 980 LT ST
3687 1016 MT 3687 1016 LT 3694 1052 LT 6895 1052 LT ST
1397 1136 MT 1487 1136 LS
1487 1172 MT 1487 1136 LS
1488 1172 MT 4053 1172 LS
4053 1172 MT 4053 1100 LS
4054 1100 MT 6253 1100 LS
6253 1172 MT 6253 1100 LS
6254 1172 MT 6895 1172 LS
6895 1172 MT 6895 1172 LS
(XXXXXXXX) 21 LC 1431 1256 WT pop 0 originOffset 33 add RSS
1396 1220 MT 1396 1220 LT 1480 1220 LT 1487 1256 LT ST
1396 1292 MT 1396 1292 LT 1480 1292 LT 1487 1256 LT ST
(00000000) 297 LC 1522 1256 WT pop 0 originOffset 33 add RSS
1487 1256 MT 1487 1256 LT 1494 1220 LT 1847 1220 LT 1854 1256 LT ST
1487 1256 MT 1487 1256 LT 1494 1292 LT 1847 1292 LT 1854 1256 LT ST
(00000001) 21 LC 1889 1256 WT pop 0 originOffset 33 add RSS
1854 1256 MT 1854 1256 LT 1861 1220 LT 1938 1220 LT 1945 1256 LT ST
1854 1256 MT 1854 1256 LT 1861 1292 LT 1938 1292 LT 1945 1256 LT ST
(00000002) 22 LC 1980 1256 WT pop 0 originOffset 33 add RSS
1945 1256 MT 1945 1256 LT 1952 1220 LT 2030 1220 LT 2037 1256 LT ST
1945 1256 MT 1945 1256 LT 1952 1292 LT 2030 1292 LT 2037 1256 LT ST
(00000003) 22 LC 2072 1256 WT pop 0 originOffset 33 add RSS
2037 1256 MT 2037 1256 LT 2044 1220 LT 2122 1220 LT 2129 1256 LT ST
2037 1256 MT 2037 1256 LT 2044 1292 LT 2122 1292 LT 2129 1256 LT ST
(00000004) 21 LC 2164 1256 WT pop 0 originOffset 33 add RSS
2129 1256 MT 2129 1256 LT 2136 1220 LT 2213 1220 LT 2220 1256 LT ST
2129 1256 MT 2129 1256 LT 2136 1292 LT 2213 1292 LT 2220 1256 LT ST
(00000005) 22 LC 2255 1256 WT pop 0 originOffset 33 add RSS
2220 1256 MT 2220 1256 LT 2227 1220 LT 2305 1220 LT 2312 1256 LT ST
2220 1256 MT 2220 1256 LT 2227 1292 LT 2305 1292 LT 2312 1256 LT ST
(00000006) 22 LC 2347 1256 WT pop 0 originOffset 33 add RSS
2312 1256 MT 2312 1256 LT 2319 1220 LT 2397 1220 LT 2404 1256 LT ST
2312 1256 MT 2312 1256 LT 2319 1292 LT 2397 1292 LT 2404 1256 LT ST
(00000007) 21 LC 2439 1256 WT pop 0 originOffset 33 add RSS
2404 1256 MT 2404 1256 LT 2411 1220 LT 2488 1220 LT 2495 1256 LT ST
2404 1256 MT 2404 1256 LT 2411 1292 LT 2488 1292 LT 2495 1256 LT ST
(00000008) 22 LC 2530 1256 WT pop 0 originOffset 33 add RSS
2495 1256 MT 2495 1256 LT 2502 1220 LT 2580 1220 LT 2587 1256 LT ST
2495 1256 MT 2495 1256 LT 2502 1292 LT 2580 1292 LT 2587 1256 LT ST
(00000009) 22 LC 2622 1256 WT pop 0 originOffset 33 add RSS
2587 1256 MT 2587 1256 LT 2594 1220 LT 2672 1220 LT 2679 1256 LT ST
2587 1256 MT 2587 1256 LT 2594 1292 LT 2672 1292 LT 2679 1256 LT ST
(0000000A) 21 LC 2714 1256 WT pop 0 originOffset 33 add RSS
2679 1256 MT 2679 1256 LT 2686 1220 LT 2763 1220 LT 2770 1256 LT ST
2679 1256 MT 2679 1256 LT 2686 1292 LT 2763 1292 LT 2770 1256 LT ST
(0000000B) 22 LC 2805 1256 WT pop 0 originOffset 33 add RSS
2770 1256 MT 2770 1256 LT 2777 1220 LT 2855 1220 LT 2862 1256 LT ST
2770 1256 MT 2770 1256 LT 2777 1292 LT 2855 1292 LT 2862 1256 LT ST
(0000000C) 571 LC 2897 1256 WT pop 0 originOffset 33 add RSS
2862 1256 MT 2862 1256 LT 2869 1220 LT 3496 1220 LT 3503 1256 LT ST
2862 1256 MT 2862 1256 LT 2869 1292 LT 3496 1292 LT 3503 1256 LT ST
(FFFFFFFD) 205 LC 3538 1256 WT pop 0 originOffset 33 add RSS
3503 1256 MT 3503 1256 LT 3510 1220 LT 3771 1220 LT 3778 1256 LT ST
3503 1256 MT 3503 1256 LT 3510 1292 LT 3771 1292 LT 3778 1256 LT ST
(FFFFFFFE) 22 LC 3813 1256 WT pop 0 originOffset 33 add RSS
3778 1256 MT 3778 1256 LT 3785 1220 LT 3863 1220 LT 3870 1256 LT ST
3778 1256 MT 3778 1256 LT 3785 1292 LT 3863 1292 LT 3870 1256 LT ST
(FFFFFFFF) 22 LC 3905 1256 WT pop 0 originOffset 33 add RSS
3870 1256 MT 3870 1256 LT 3877 1220 LT 3955 1220 LT 3962 1256 LT ST
3870 1256 MT 3870 1256 LT 3877 1292 LT 3955 1292 LT 3962 1256 LT ST
(00000000) 21 LC 3997 1256 WT pop 0 originOffset 33 add RSS
3962 1256 MT 3962 1256 LT 3969 1220 LT 4046 1220 LT 4053 1256 LT ST
3962 1256 MT 3962 1256 LT 3969 1292 LT 4046 1292 LT 4053 1256 LT ST
(00000001) 22 LC 4088 1256 WT pop 0 originOffset 33 add RSS
4053 1256 MT 4053 1256 LT 4060 1220 LT 4138 1220 LT 4145 1256 LT ST
4053 1256 MT 4053 1256 LT 4060 1292 LT 4138 1292 LT 4145 1256 LT ST
(00000002) 22 LC 4180 1256 WT pop 0 originOffset 33 add RSS
4145 1256 MT 4145 1256 LT 4152 1220 LT 4230 1220 LT 4237 1256 LT ST
4145 1256 MT 4145 1256 LT 4152 1292 LT 4230 1292 LT 4237 1256 LT ST
(00000003) 21 LC 4272 1256 WT pop 0 originOffset 33 add RSS
4237 1256 MT 4237 1256 LT 4244 1220 LT 4321 1220 LT 4328 1256 LT ST
4237 1256 MT 4237 1256 LT 4244 1292 LT 4321 1292 LT 4328 1256 LT ST
(00000004) 22 LC 4363 1256 WT pop 0 originOffset 33 add RSS
4328 1256 MT 4328 1256 LT 4335 1220 LT 4413 1220 LT 4420 1256 LT ST
4328 1256 MT 4328 1256 LT 4335 1292 LT 4413 1292 LT 4420 1256 LT ST
(00000005) 22 LC 4455 1256 WT pop 0 originOffset 33 add RSS
4420 1256 MT 4420 1256 LT 4427 1220 LT 4505 1220 LT 4512 1256 LT ST
4420 1256 MT 4420 1256 LT 4427 1292 LT 4505 1292 LT 4512 1256 LT ST
(00000006) 21 LC 4547 1256 WT pop 0 originOffset 33 add RSS
4512 1256 MT 4512 1256 LT 4519 1220 LT 4596 1220 LT 4603 1256 LT ST
4512 1256 MT 4512 1256 LT 4519 1292 LT 4596 1292 LT 4603 1256 LT ST
(00000007) 22 LC 4638 1256 WT pop 0 originOffset 33 add RSS
4603 1256 MT 4603 1256 LT 4610 1220 LT 4688 1220 LT 4695 1256 LT ST
4603 1256 MT 4603 1256 LT 4610 1292 LT 4688 1292 LT 4695 1256 LT ST
(00000008) 22 LC 4730 1256 WT pop 0 originOffset 33 add RSS
4695 1256 MT 4695 1256 LT 4702 1220 LT 4780 1220 LT 4787 1256 LT ST
4695 1256 MT 4695 1256 LT 4702 1292 LT 4780 1292 LT 4787 1256 LT ST
(00000009) 21 LC 4822 1256 WT pop 0 originOffset 33 add RSS
4787 1256 MT 4787 1256 LT 4794 1220 LT 4871 1220 LT 4878 1256 LT ST
4787 1256 MT 4787 1256 LT 4794 1292 LT 4871 1292 LT 4878 1256 LT ST
(0000000A) 22 LC 4913 1256 WT pop 0 originOffset 33 add RSS
4878 1256 MT 4878 1256 LT 4885 1220 LT 4963 1220 LT 4970 1256 LT ST
4878 1256 MT 4878 1256 LT 4885 1292 LT 4963 1292 LT 4970 1256 LT ST
(0000000B) 22 LC 5005 1256 WT pop 0 originOffset 33 add RSS
4970 1256 MT 4970 1256 LT 4977 1220 LT 5055 1220 LT 5062 1256 LT ST
4970 1256 MT 4970 1256 LT 4977 1292 LT 5055 1292 LT 5062 1256 LT ST
(0000000C) 21 LC 5097 1256 WT pop 0 originOffset 33 add RSS
5062 1256 MT 5062 1256 LT 5069 1220 LT 5146 1220 LT 5153 1256 LT ST
5062 1256 MT 5062 1256 LT 5069 1292 LT 5146 1292 LT 5153 1256 LT ST
(0000000D) 22 LC 5188 1256 WT pop 0 originOffset 33 add RSS
5153 1256 MT 5153 1256 LT 5160 1220 LT 5238 1220 LT 5245 1256 LT ST
5153 1256 MT 5153 1256 LT 5160 1292 LT 5238 1292 LT 5245 1256 LT ST
(0000000E) 21 LC 5280 1256 WT pop 0 originOffset 33 add RSS
5245 1256 MT 5245 1256 LT 5252 1220 LT 5329 1220 LT 5336 1256 LT ST
5245 1256 MT 5245 1256 LT 5252 1292 LT 5329 1292 LT 5336 1256 LT ST
(0000000F) 22 LC 5371 1256 WT pop 0 originOffset 33 add RSS
5336 1256 MT 5336 1256 LT 5343 1220 LT 5421 1220 LT 5428 1256 LT ST
5336 1256 MT 5336 1256 LT 5343 1292 LT 5421 1292 LT 5428 1256 LT ST
(00000010) 22 LC 5463 1256 WT pop 0 originOffset 33 add RSS
5428 1256 MT 5428 1256 LT 5435 1220 LT 5513 1220 LT 5520 1256 LT ST
5428 1256 MT 5428 1256 LT 5435 1292 LT 5513 1292 LT 5520 1256 LT ST
(00000011) 21 LC 5555 1256 WT pop 0 originOffset 33 add RSS
5520 1256 MT 5520 1256 LT 5527 1220 LT 5604 1220 LT 5611 1256 LT ST
5520 1256 MT 5520 1256 LT 5527 1292 LT 5604 1292 LT 5611 1256 LT ST
(00000012) 22 LC 5646 1256 WT pop 0 originOffset 33 add RSS
5611 1256 MT 5611 1256 LT 5618 1220 LT 5696 1220 LT 5703 1256 LT ST
5611 1256 MT 5611 1256 LT 5618 1292 LT 5696 1292 LT 5703 1256 LT ST
(00000013) 22 LC 5738 1256 WT pop 0 originOffset 33 add RSS
5703 1256 MT 5703 1256 LT 5710 1220 LT 5788 1220 LT 5795 1256 LT ST
5703 1256 MT 5703 1256 LT 5710 1292 LT 5788 1292 LT 5795 1256 LT ST
(00000014) 21 LC 5830 1256 WT pop 0 originOffset 33 add RSS
5795 1256 MT 5795 1256 LT 5802 1220 LT 5879 1220 LT 5886 1256 LT ST
5795 1256 MT 5795 1256 LT 5802 1292 LT 5879 1292 LT 5886 1256 LT ST
(00000015) 22 LC 5921 1256 WT pop 0 originOffset 33 add RSS
5886 1256 MT 5886 1256 LT 5893 1220 LT 5971 1220 LT 5978 1256 LT ST
5886 1256 MT 5886 1256 LT 5893 1292 LT 5971 1292 LT 5978 1256 LT ST
(00000016) 22 LC 6013 1256 WT pop 0 originOffset 33 add RSS
5978 1256 MT 5978 1256 LT 5985 1220 LT 6063 1220 LT 6070 1256 LT ST
5978 1256 MT 5978 1256 LT 5985 1292 LT 6063 1292 LT 6070 1256 LT ST
(00000017) 21 LC 6105 1256 WT pop 0 originOffset 33 add RSS
6070 1256 MT 6070 1256 LT 6077 1220 LT 6154 1220 LT 6161 1256 LT ST
6070 1256 MT 6070 1256 LT 6077 1292 LT 6154 1292 LT 6161 1256 LT ST
(00000018) 22 LC 6196 1256 WT pop 0 originOffset 33 add RSS
6161 1256 MT 6161 1256 LT 6168 1220 LT 6246 1220 LT 6253 1256 LT ST
6161 1256 MT 6161 1256 LT 6168 1292 LT 6246 1292 LT 6253 1256 LT ST
(00000019) 22 LC 6288 1256 WT pop 0 originOffset 33 add RSS
6253 1256 MT 6253 1256 LT 6260 1220 LT 6338 1220 LT 6345 1256 LT ST
6253 1256 MT 6253 1256 LT 6260 1292 LT 6338 1292 LT 6345 1256 LT ST
(0000001A) 21 LC 6380 1256 WT pop 0 originOffset 33 add RSS
6345 1256 MT 6345 1256 LT 6352 1220 LT 6429 1220 LT 6436 1256 LT ST
6345 1256 MT 6345 1256 LT 6352 1292 LT 6429 1292 LT 6436 1256 LT ST
(0000001B) 22 LC 6471 1256 WT pop 0 originOffset 33 add RSS
6436 1256 MT 6436 1256 LT 6443 1220 LT 6521 1220 LT 6528 1256 LT ST
6436 1256 MT 6436 1256 LT 6443 1292 LT 6521 1292 LT 6528 1256 LT ST
(0000001C) 22 LC 6563 1256 WT pop 0 originOffset 33 add RSS
6528 1256 MT 6528 1256 LT 6535 1220 LT 6613 1220 LT 6620 1256 LT ST
6528 1256 MT 6528 1256 LT 6535 1292 LT 6613 1292 LT 6620 1256 LT ST
(0000001D) 21 LC 6655 1256 WT pop 0 originOffset 33 add RSS
6620 1256 MT 6620 1256 LT 6627 1220 LT 6704 1220 LT 6711 1256 LT ST
6620 1256 MT 6620 1256 LT 6627 1292 LT 6704 1292 LT 6711 1256 LT ST
(0000001E) 22 LC 6746 1256 WT pop 0 originOffset 33 add RSS
6711 1256 MT 6711 1256 LT 6718 1220 LT 6796 1220 LT 6803 1256 LT ST
6711 1256 MT 6711 1256 LT 6718 1292 LT 6796 1292 LT 6803 1256 LT ST
(0000001F) 22 LC 6838 1256 WT pop 0 originOffset 33 add RSS
6803 1256 MT 6803 1256 LT 6810 1220 LT 6895 1220 LT ST
6803 1256 MT 6803 1256 LT 6810 1292 LT 6895 1292 LT ST
1397 1376 MT 1487 1376 LS
1487 1412 MT 1487 1376 LS
1488 1412 MT 1762 1412 LS
1762 1412 MT 1762 1340 LS
1763 1340 MT 2862 1340 LS
2862 1412 MT 2862 1340 LS
2863 1412 MT 3687 1412 LS
3687 1412 MT 3687 1340 LS
3688 1340 MT 6895 1340 LS
6895 1340 MT 6895 1340 LS
1397 1496 MT 1487 1496 LS
1487 1532 MT 1487 1496 LS
1488 1532 MT 4053 1532 LS
4053 1532 MT 4053 1460 LS
4054 1460 MT 6253 1460 LS
6253 1532 MT 6253 1460 LS
6254 1532 MT 6895 1532 LS
6895 1532 MT 6895 1532 LS
1397 1616 MT 1487 1616 LS
1487 1652 MT 1487 1616 LS
1488 1652 MT 3595 1652 LS
3595 1652 MT 3595 1580 LS
3596 1580 MT 6895 1580 LS
6895 1580 MT 6895 1580 LS
% draw timeline
(0 ps) 9999 LC 1396 4707 WT TS RSS
1466 4599 MT 1466 4636 LS
1465 4618 MT 1467 4618 LS
1579 4599 MT 1579 4636 LS
1763 4599 MT 1763 4636 LS
1946 4599 MT 1946 4636 LS
2129 4599 MT 2129 4636 LS
2312 4572 MT 2312 4636 LS
2495 4599 MT 2495 4636 LS
2679 4599 MT 2679 4636 LS
2862 4599 MT 2862 4636 LS
3045 4599 MT 3045 4636 LS
3229 4572 MT 3229 4636 LS
(400000 ps) 9999 LC 3229 4707 WT TS RSS
3412 4599 MT 3412 4636 LS
3596 4599 MT 3596 4636 LS
3779 4599 MT 3779 4636 LS
3962 4599 MT 3962 4636 LS
4145 4572 MT 4145 4636 LS
4328 4599 MT 4328 4636 LS
4512 4599 MT 4512 4636 LS
4695 4599 MT 4695 4636 LS
4878 4599 MT 4878 4636 LS
5062 4572 MT 5062 4636 LS
(800000 ps) 9999 LC 5062 4707 WT TS RSS
5245 4599 MT 5245 4636 LS
5429 4599 MT 5429 4636 LS
5612 4599 MT 5612 4636 LS
5795 4599 MT 5795 4636 LS
5978 4572 MT 5978 4636 LS
6161 4599 MT 6161 4636 LS
6345 4599 MT 6345 4636 LS
6528 4599 MT 6528 4636 LS
6711 4599 MT 6711 4636 LS
6895 4572 MT 6895 4636 LS
(1200000 ps) 9999 LC 6895 4707 WT TS RSS
7078 4599 MT 7078 4636 LS
7262 4599 MT 7262 4636 LS
7445 4599 MT 7445 4636 LS
7628 4599 MT 7628 4636 LS
% draw grid
1854 118 MT 1854 4572 LS
2312 118 MT 2312 4572 LS
2770 118 MT 2770 4572 LS
3229 118 MT 3229 4572 LS
3687 118 MT 3687 4572 LS
4145 118 MT 4145 4572 LS
4603 118 MT 4603 4572 LS
5062 118 MT 5062 4572 LS
5520 118 MT 5520 4572 LS
5978 118 MT 5978 4572 LS
6436 118 MT 6436 4572 LS
6895 118 MT 6895 4572 LS
% draw waveforms
(/timer_tb/DUT/Clk) 9999 LC 1359 211 WT TSE RSS
1847 118 MT 1861 118 LS
2305 118 MT 2319 118 LS
2763 118 MT 2777 118 LS
3222 118 MT 3236 118 LS
3680 118 MT 3694 118 LS
4138 118 MT 4152 118 LS
4596 118 MT 4610 118 LS
5055 118 MT 5069 118 LS
5513 118 MT 5527 118 LS
5971 118 MT 5985 118 LS
6429 118 MT 6443 118 LS
6888 118 MT 6902 118 LS
1397 140 MT 1441 140 LS
1441 212 MT 1441 140 LS
1442 212 MT 1487 212 LS
1487 212 MT 1487 140 LS
1488 140 MT 1533 140 LS
1533 212 MT 1533 140 LS
1534 212 MT 1579 212 LS
1579 212 MT 1579 140 LS
1580 140 MT 1625 140 LS
1625 212 MT 1625 140 LS
1626 212 MT 1670 212 LS
1670 212 MT 1670 140 LS
1671 140 MT 1716 140 LS
1716 212 MT 1716 140 LS
1717 212 MT 1762 212 LS
1762 212 MT 1762 140 LS
1763 140 MT 1808 140 LS
1808 212 MT 1808 140 LS
1809 212 MT 1854 212 LS
1854 212 MT 1854 140 LS
1855 140 MT 1900 140 LS
1900 212 MT 1900 140 LS
1901 212 MT 1945 212 LS
1945 212 MT 1945 140 LS
1946 140 MT 1991 140 LS
1991 212 MT 1991 140 LS
1992 212 MT 2037 212 LS
2037 212 MT 2037 140 LS
2038 140 MT 2083 140 LS
2083 212 MT 2083 140 LS
2084 212 MT 2129 212 LS
2129 212 MT 2129 140 LS
2130 140 MT 2175 140 LS
2175 212 MT 2175 140 LS
2176 212 MT 2220 212 LS
2220 212 MT 2220 140 LS
2221 140 MT 2266 140 LS
2266 212 MT 2266 140 LS
2267 212 MT 2312 212 LS
2312 212 MT 2312 140 LS
2313 140 MT 2358 140 LS
2358 212 MT 2358 140 LS
2359 212 MT 2404 212 LS
2404 212 MT 2404 140 LS
2405 140 MT 2449 140 LS
2449 212 MT 2449 140 LS
2450 212 MT 2495 212 LS
2495 212 MT 2495 140 LS
2496 140 MT 2541 140 LS
2541 212 MT 2541 140 LS
2542 212 MT 2587 212 LS
2587 212 MT 2587 140 LS
2588 140 MT 2633 140 LS
2633 212 MT 2633 140 LS
2634 212 MT 2679 212 LS
2679 212 MT 2679 140 LS
2680 140 MT 2724 140 LS
2724 212 MT 2724 140 LS
2725 212 MT 2770 212 LS
2770 212 MT 2770 140 LS
2771 140 MT 2816 140 LS
2816 212 MT 2816 140 LS
2817 212 MT 2862 212 LS
2862 212 MT 2862 140 LS
2863 140 MT 2908 140 LS
2908 212 MT 2908 140 LS
2909 212 MT 2954 212 LS
2954 212 MT 2954 140 LS
2955 140 MT 2999 140 LS
2999 212 MT 2999 140 LS
3000 212 MT 3045 212 LS
3045 212 MT 3045 140 LS
3046 140 MT 3091 140 LS
3091 212 MT 3091 140 LS
3092 212 MT 3137 212 LS
3137 212 MT 3137 140 LS
3138 140 MT 3183 140 LS
3183 212 MT 3183 140 LS
3184 212 MT 3229 212 LS
3229 212 MT 3229 140 LS
3230 140 MT 3274 140 LS
3274 212 MT 3274 140 LS
3275 212 MT 3320 212 LS
3320 212 MT 3320 140 LS
3321 140 MT 3366 140 LS
3366 212 MT 3366 140 LS
3367 212 MT 3412 212 LS
3412 212 MT 3412 140 LS
3413 140 MT 3458 140 LS
3458 212 MT 3458 140 LS
3459 212 MT 3503 212 LS
3503 212 MT 3503 140 LS
3504 140 MT 3549 140 LS
3549 212 MT 3549 140 LS
3550 212 MT 3595 212 LS
3595 212 MT 3595 140 LS
3596 140 MT 3641 140 LS
3641 212 MT 3641 140 LS
3642 212 MT 3687 212 LS
3687 212 MT 3687 140 LS
3688 140 MT 3733 140 LS
3733 212 MT 3733 140 LS
3734 212 MT 3778 212 LS
3778 212 MT 3778 140 LS
3779 140 MT 3824 140 LS
3824 212 MT 3824 140 LS
3825 212 MT 3870 212 LS
3870 212 MT 3870 140 LS
3871 140 MT 3916 140 LS
3916 212 MT 3916 140 LS
3917 212 MT 3962 212 LS
3962 212 MT 3962 140 LS
3963 140 MT 4008 140 LS
4008 212 MT 4008 140 LS
4009 212 MT 4053 212 LS
4053 212 MT 4053 140 LS
4054 140 MT 4099 140 LS
4099 212 MT 4099 140 LS
4100 212 MT 4145 212 LS
4145 212 MT 4145 140 LS
4146 140 MT 4191 140 LS
4191 212 MT 4191 140 LS
4192 212 MT 4237 212 LS
4237 212 MT 4237 140 LS
4238 140 MT 4282 140 LS
4282 212 MT 4282 140 LS
4283 212 MT 4328 212 LS
4328 212 MT 4328 140 LS
4329 140 MT 4374 140 LS
4374 212 MT 4374 140 LS
4375 212 MT 4420 212 LS
4420 212 MT 4420 140 LS
4421 140 MT 4466 140 LS
4466 212 MT 4466 140 LS
4467 212 MT 4512 212 LS
4512 212 MT 4512 140 LS
4513 140 MT 4557 140 LS
4557 212 MT 4557 140 LS
4558 212 MT 4603 212 LS
4603 212 MT 4603 140 LS
4604 140 MT 4649 140 LS
4649 212 MT 4649 140 LS
4650 212 MT 4695 212 LS
4695 212 MT 4695 140 LS
4696 140 MT 4741 140 LS
4741 212 MT 4741 140 LS
4742 212 MT 4787 212 LS
4787 212 MT 4787 140 LS
4788 140 MT 4832 140 LS
4832 212 MT 4832 140 LS
4833 212 MT 4878 212 LS
4878 212 MT 4878 140 LS
4879 140 MT 4924 140 LS
4924 212 MT 4924 140 LS
4925 212 MT 4970 212 LS
4970 212 MT 4970 140 LS
4971 140 MT 5016 140 LS
5016 212 MT 5016 140 LS
5017 212 MT 5062 212 LS
5062 212 MT 5062 140 LS
5063 140 MT 5107 140 LS
5107 212 MT 5107 140 LS
5108 212 MT 5153 212 LS
5153 212 MT 5153 140 LS
5154 140 MT 5199 140 LS
5199 212 MT 5199 140 LS
5200 212 MT 5245 212 LS
5245 212 MT 5245 140 LS
5246 140 MT 5291 140 LS
5291 212 MT 5291 140 LS
5292 212 MT 5336 212 LS
5336 212 MT 5336 140 LS
5337 140 MT 5382 140 LS
5382 212 MT 5382 140 LS
5383 212 MT 5428 212 LS
5428 212 MT 5428 140 LS
5429 140 MT 5474 140 LS
5474 212 MT 5474 140 LS
5475 212 MT 5520 212 LS
5520 212 MT 5520 140 LS
5521 140 MT 5566 140 LS
5566 212 MT 5566 140 LS
5567 212 MT 5611 212 LS
5611 212 MT 5611 140 LS
5612 140 MT 5657 140 LS
5657 212 MT 5657 140 LS
5658 212 MT 5703 212 LS
5703 212 MT 5703 140 LS
5704 140 MT 5749 140 LS
5749 212 MT 5749 140 LS
5750 212 MT 5795 212 LS
5795 212 MT 5795 140 LS
5796 140 MT 5841 140 LS
5841 212 MT 5841 140 LS
5842 212 MT 5886 212 LS
5886 212 MT 5886 140 LS
5887 140 MT 5932 140 LS
5932 212 MT 5932 140 LS
5933 212 MT 5978 212 LS
5978 212 MT 5978 140 LS
5979 140 MT 6024 140 LS
6024 212 MT 6024 140 LS
6025 212 MT 6070 212 LS
6070 212 MT 6070 140 LS
6071 140 MT 6115 140 LS
6115 212 MT 6115 140 LS
6116 212 MT 6161 212 LS
6161 212 MT 6161 140 LS
6162 140 MT 6207 140 LS
6207 212 MT 6207 140 LS
6208 212 MT 6253 212 LS
6253 212 MT 6253 140 LS
6254 140 MT 6299 140 LS
6299 212 MT 6299 140 LS
6300 212 MT 6345 212 LS
6345 212 MT 6345 140 LS
6346 140 MT 6390 140 LS
6390 212 MT 6390 140 LS
6391 212 MT 6436 212 LS
6436 212 MT 6436 140 LS
6437 140 MT 6482 140 LS
6482 212 MT 6482 140 LS
6483 212 MT 6528 212 LS
6528 212 MT 6528 140 LS
6529 140 MT 6574 140 LS
6574 212 MT 6574 140 LS
6575 212 MT 6620 212 LS
6620 212 MT 6620 140 LS
6621 140 MT 6665 140 LS
6665 212 MT 6665 140 LS
6666 212 MT 6711 212 LS
6711 212 MT 6711 140 LS
6712 140 MT 6757 140 LS
6757 212 MT 6757 140 LS
6758 212 MT 6803 212 LS
6803 212 MT 6803 140 LS
6804 140 MT 6849 140 LS
6849 212 MT 6849 140 LS
6850 212 MT 6895 212 LS
6895 212 MT 6895 140 LS
(/timer_tb/DUT/nReset) 9999 LC 1359 331 WT TSE RSS
1847 238 MT 1861 238 LS
2305 238 MT 2319 238 LS
2763 238 MT 2777 238 LS
3222 238 MT 3236 238 LS
3680 238 MT 3694 238 LS
4138 238 MT 4152 238 LS
4596 238 MT 4610 238 LS
5055 238 MT 5069 238 LS
5513 238 MT 5527 238 LS
5971 238 MT 5985 238 LS
6429 238 MT 6443 238 LS
6888 238 MT 6902 238 LS
1396 332 MT 1396 296 LS
1397 332 MT 1510 332 LS
1510 332 MT 1510 260 LS
1511 260 MT 6895 260 LS
6895 260 MT 6895 260 LS
(/timer_tb/DUT/Address) 9999 LC 1359 451 WT TSE RSS
1847 358 MT 1861 358 LS
2305 358 MT 2319 358 LS
2763 358 MT 2777 358 LS
3222 358 MT 3236 358 LS
3680 358 MT 3694 358 LS
4138 358 MT 4152 358 LS
4596 358 MT 4610 358 LS
5055 358 MT 5069 358 LS
5513 358 MT 5527 358 LS
5971 358 MT 5985 358 LS
6429 358 MT 6443 358 LS
6888 358 MT 6902 358 LS
(X) 113 LC 1431 416 WT pop 0 originOffset 33 add RSS
1396 380 MT 1396 380 LT 1572 380 LT 1579 416 LT ST
1396 452 MT 1396 452 LT 1572 452 LT 1579 416 LT ST
(0) 21 LC 1614 416 WT pop 0 originOffset 33 add RSS
1579 416 MT 1579 416 LT 1586 380 LT 1663 380 LT 1670 416 LT ST
1579 416 MT 1579 416 LT 1586 452 LT 1663 452 LT 1670 416 LT ST
(1) 22 LC 1705 416 WT pop 0 originOffset 33 add RSS
1670 416 MT 1670 416 LT 1677 380 LT 1755 380 LT 1762 416 LT ST
1670 416 MT 1670 416 LT 1677 452 LT 1755 452 LT 1762 416 LT ST
(0) 938 LC 1797 416 WT pop 0 originOffset 33 add RSS
1762 416 MT 1762 416 LT 1769 380 LT 2763 380 LT 2770 416 LT ST
1762 416 MT 1762 416 LT 1769 452 LT 2763 452 LT 2770 416 LT ST
(1) 22 LC 2805 416 WT pop 0 originOffset 33 add RSS
2770 416 MT 2770 416 LT 2777 380 LT 2855 380 LT 2862 416 LT ST
2770 416 MT 2770 416 LT 2777 452 LT 2855 452 LT 2862 416 LT ST
(0) 571 LC 2897 416 WT pop 0 originOffset 33 add RSS
2862 416 MT 2862 416 LT 2869 380 LT 3496 380 LT 3503 416 LT ST
2862 416 MT 2862 416 LT 2869 452 LT 3496 452 LT 3503 416 LT ST
(3) 22 LC 3538 416 WT pop 0 originOffset 33 add RSS
3503 416 MT 3503 416 LT 3510 380 LT 3588 380 LT 3595 416 LT ST
3503 416 MT 3503 416 LT 3510 452 LT 3588 452 LT 3595 416 LT ST
(1) 22 LC 3630 416 WT pop 0 originOffset 33 add RSS
3595 416 MT 3595 416 LT 3602 380 LT 3680 380 LT 3687 416 LT ST
3595 416 MT 3595 416 LT 3602 452 LT 3680 452 LT 3687 416 LT ST
(0) 2404 LC 3722 416 WT pop 0 originOffset 33 add RSS
3687 416 MT 3687 416 LT 3694 380 LT 6154 380 LT 6161 416 LT ST
3687 416 MT 3687 416 LT 3694 452 LT 6154 452 LT 6161 416 LT ST
(2) 22 LC 6196 416 WT pop 0 originOffset 33 add RSS
6161 416 MT 6161 416 LT 6168 380 LT 6246 380 LT 6253 416 LT ST
6161 416 MT 6161 416 LT 6168 452 LT 6246 452 LT 6253 416 LT ST
(0) 572 LC 6288 416 WT pop 0 originOffset 33 add RSS
6253 416 MT 6253 416 LT 6260 380 LT 6895 380 LT ST
6253 416 MT 6253 416 LT 6260 452 LT 6895 452 LT ST
(/timer_tb/DUT/ChipSelect) 9999 LC 1359 571 WT TSE RSS
1847 478 MT 1861 478 LS
2305 478 MT 2319 478 LS
2763 478 MT 2777 478 LS
3222 478 MT 3236 478 LS
3680 478 MT 3694 478 LS
4138 478 MT 4152 478 LS
4596 478 MT 4610 478 LS
5055 478 MT 5069 478 LS
5513 478 MT 5527 478 LS
5971 478 MT 5985 478 LS
6429 478 MT 6443 478 LS
6888 478 MT 6902 478 LS
1397 536 MT 1579 536 LS
1579 572 MT 1579 536 LS
1580 572 MT 1670 572 LS
1670 572 MT 1670 500 LS
1671 500 MT 1762 500 LS
1762 572 MT 1762 500 LS
1763 572 MT 2770 572 LS
2770 572 MT 2770 500 LS
2771 500 MT 2862 500 LS
2862 572 MT 2862 500 LS
2863 572 MT 3412 572 LS
3412 572 MT 3412 500 LS
3413 500 MT 3687 500 LS
3687 572 MT 3687 500 LS
3688 572 MT 6070 572 LS
6070 572 MT 6070 500 LS
6071 500 MT 6253 500 LS
6253 572 MT 6253 500 LS
6254 572 MT 6895 572 LS
6895 572 MT 6895 572 LS
(/timer_tb/DUT/Read_en) 9999 LC 1359 691 WT TSE RSS
1847 598 MT 1861 598 LS
2305 598 MT 2319 598 LS
2763 598 MT 2777 598 LS
3222 598 MT 3236 598 LS
3680 598 MT 3694 598 LS
4138 598 MT 4152 598 LS
4596 598 MT 4610 598 LS
5055 598 MT 5069 598 LS
5513 598 MT 5527 598 LS
5971 598 MT 5985 598 LS
6429 598 MT 6443 598 LS
6888 598 MT 6902 598 LS
1397 656 MT 1579 656 LS
1579 692 MT 1579 656 LS
1580 692 MT 6070 692 LS
6070 692 MT 6070 620 LS
6071 620 MT 6161 620 LS
6161 692 MT 6161 620 LS
6162 692 MT 6895 692 LS
6895 692 MT 6895 692 LS
(/timer_tb/DUT/Write_en) 9999 LC 1359 811 WT TSE RSS
1847 718 MT 1861 718 LS
2305 718 MT 2319 718 LS
2763 718 MT 2777 718 LS
3222 718 MT 3236 718 LS
3680 718 MT 3694 718 LS
4138 718 MT 4152 718 LS
4596 718 MT 4610 718 LS
5055 718 MT 5069 718 LS
5513 718 MT 5527 718 LS
5971 718 MT 5985 718 LS
6429 718 MT 6443 718 LS
6888 718 MT 6902 718 LS
1397 776 MT 1579 776 LS
1579 812 MT 1579 776 LS
1580 812 MT 1670 812 LS
1670 812 MT 1670 740 LS
1671 740 MT 1762 740 LS
1762 812 MT 1762 740 LS
1763 812 MT 2770 812 LS
2770 812 MT 2770 740 LS
2771 740 MT 2862 740 LS
2862 812 MT 2862 740 LS
2863 812 MT 3412 812 LS
3412 812 MT 3412 740 LS
3413 740 MT 3687 740 LS
3687 812 MT 3687 740 LS
3688 812 MT 6161 812 LS
6161 812 MT 6161 740 LS
6162 740 MT 6253 740 LS
6253 812 MT 6253 740 LS
6254 812 MT 6895 812 LS
6895 812 MT 6895 812 LS
(/timer_tb/DUT/ReadData) 9999 LC 1359 931 WT TSE RSS
1847 838 MT 1861 838 LS
2305 838 MT 2319 838 LS
2763 838 MT 2777 838 LS
3222 838 MT 3236 838 LS
3680 838 MT 3694 838 LS
4138 838 MT 4152 838 LS
4596 838 MT 4610 838 LS
5055 838 MT 5069 838 LS
5513 838 MT 5527 838 LS
5971 838 MT 5985 838 LS
6429 838 MT 6443 838 LS
6888 838 MT 6902 838 LS
(XXXXXXXX) 113 LC 1431 896 WT pop 0 originOffset 33 add RSS
1396 860 MT 1396 860 LT 1572 860 LT 1579 896 LT ST
1396 932 MT 1396 932 LT 1572 932 LT 1579 896 LT ST
(00000000) 4512 LC 1614 896 WT pop 0 originOffset 33 add RSS
1579 896 MT 1579 896 LT 1586 860 LT 6154 860 LT 6161 896 LT ST
1579 896 MT 1579 896 LT 1586 932 LT 6154 932 LT 6161 896 LT ST
(00000017) 22 LC 6196 896 WT pop 0 originOffset 33 add RSS
6161 896 MT 6161 896 LT 6168 860 LT 6246 860 LT 6253 896 LT ST
6161 896 MT 6161 896 LT 6168 932 LT 6246 932 LT 6253 896 LT ST
(00000000) 572 LC 6288 896 WT pop 0 originOffset 33 add RSS
6253 896 MT 6253 896 LT 6260 860 LT 6895 860 LT ST
6253 896 MT 6253 896 LT 6260 932 LT 6895 932 LT ST
(/timer_tb/DUT/WriteData) 9999 LC 1359 1051 WT TSE RSS
1847 958 MT 1861 958 LS
2305 958 MT 2319 958 LS
2763 958 MT 2777 958 LS
3222 958 MT 3236 958 LS
3680 958 MT 3694 958 LS
4138 958 MT 4152 958 LS
4596 958 MT 4610 958 LS
5055 958 MT 5069 958 LS
5513 958 MT 5527 958 LS
5971 958 MT 5985 958 LS
6429 958 MT 6443 958 LS
6888 958 MT 6902 958 LS
(XXXXXXXX) 113 LC 1431 1016 WT pop 0 originOffset 33 add RSS
1396 980 MT 1396 980 LT 1572 980 LT 1579 1016 LT ST
1396 1052 MT 1396 1052 LT 1572 1052 LT 1579 1016 LT ST
(00000000) 21 LC 1614 1016 WT pop 0 originOffset 33 add RSS
1579 1016 MT 1579 1016 LT 1586 980 LT 1663 980 LT 1670 1016 LT ST
1579 1016 MT 1579 1016 LT 1586 1052 LT 1663 1052 LT 1670 1016 LT ST
(00000001) 22 LC 1705 1016 WT pop 0 originOffset 33 add RSS
1670 1016 MT 1670 1016 LT 1677 980 LT 1755 980 LT 1762 1016 LT ST
1670 1016 MT 1670 1016 LT 1677 1052 LT 1755 1052 LT 1762 1016 LT ST
(00000000) 1580 LC 1797 1016 WT pop 0 originOffset 33 add RSS
1762 1016 MT 1762 1016 LT 1769 980 LT 3405 980 LT 3412 1016 LT ST
1762 1016 MT 1762 1016 LT 1769 1052 LT 3405 1052 LT 3412 1016 LT ST
(FFFFFFFD) 21 LC 3447 1016 WT pop 0 originOffset 33 add RSS
3412 1016 MT 3412 1016 LT 3419 980 LT 3496 980 LT 3503 1016 LT ST
3412 1016 MT 3412 1016 LT 3419 1052 LT 3496 1052 LT 3503 1016 LT ST
(00000001) 114 LC 3538 1016 WT pop 0 originOffset 33 add RSS
3503 1016 MT 3503 1016 LT 3510 980 LT 3680 980 LT 3687 1016 LT ST
3503 1016 MT 3503 1016 LT 3510 1052 LT 3680 1052 LT 3687 1016 LT ST
(00000000) 3138 LC 3722 1016 WT pop 0 originOffset 33 add RSS
3687 1016 MT 3687 1016 LT 3694 980 LT 6895 980 LT ST
3687 1016 MT 3687 1016 LT 3694 1052 LT 6895 1052 LT ST
(/timer_tb/DUT/IRQ) 9999 LC 1359 1171 WT TSE RSS
1847 1078 MT 1861 1078 LS
2305 1078 MT 2319 1078 LS
2763 1078 MT 2777 1078 LS
3222 1078 MT 3236 1078 LS
3680 1078 MT 3694 1078 LS
4138 1078 MT 4152 1078 LS
4596 1078 MT 4610 1078 LS
5055 1078 MT 5069 1078 LS
5513 1078 MT 5527 1078 LS
5971 1078 MT 5985 1078 LS
6429 1078 MT 6443 1078 LS
6888 1078 MT 6902 1078 LS
1397 1136 MT 1487 1136 LS
1487 1172 MT 1487 1136 LS
1488 1172 MT 4053 1172 LS
4053 1172 MT 4053 1100 LS
4054 1100 MT 6253 1100 LS
6253 1172 MT 6253 1100 LS
6254 1172 MT 6895 1172 LS
6895 1172 MT 6895 1172 LS
(/timer_tb/DUT/cnt) 9999 LC 1359 1291 WT TSE RSS
1847 1198 MT 1861 1198 LS
2305 1198 MT 2319 1198 LS
2763 1198 MT 2777 1198 LS
3222 1198 MT 3236 1198 LS
3680 1198 MT 3694 1198 LS
4138 1198 MT 4152 1198 LS
4596 1198 MT 4610 1198 LS
5055 1198 MT 5069 1198 LS
5513 1198 MT 5527 1198 LS
5971 1198 MT 5985 1198 LS
6429 1198 MT 6443 1198 LS
6888 1198 MT 6902 1198 LS
(XXXXXXXX) 21 LC 1431 1256 WT pop 0 originOffset 33 add RSS
1396 1220 MT 1396 1220 LT 1480 1220 LT 1487 1256 LT ST
1396 1292 MT 1396 1292 LT 1480 1292 LT 1487 1256 LT ST
(00000000) 297 LC 1522 1256 WT pop 0 originOffset 33 add RSS
1487 1256 MT 1487 1256 LT 1494 1220 LT 1847 1220 LT 1854 1256 LT ST
1487 1256 MT 1487 1256 LT 1494 1292 LT 1847 1292 LT 1854 1256 LT ST
(00000001) 21 LC 1889 1256 WT pop 0 originOffset 33 add RSS
1854 1256 MT 1854 1256 LT 1861 1220 LT 1938 1220 LT 1945 1256 LT ST
1854 1256 MT 1854 1256 LT 1861 1292 LT 1938 1292 LT 1945 1256 LT ST
(00000002) 22 LC 1980 1256 WT pop 0 originOffset 33 add RSS
1945 1256 MT 1945 1256 LT 1952 1220 LT 2030 1220 LT 2037 1256 LT ST
1945 1256 MT 1945 1256 LT 1952 1292 LT 2030 1292 LT 2037 1256 LT ST
(00000003) 22 LC 2072 1256 WT pop 0 originOffset 33 add RSS
2037 1256 MT 2037 1256 LT 2044 1220 LT 2122 1220 LT 2129 1256 LT ST
2037 1256 MT 2037 1256 LT 2044 1292 LT 2122 1292 LT 2129 1256 LT ST
(00000004) 21 LC 2164 1256 WT pop 0 originOffset 33 add RSS
2129 1256 MT 2129 1256 LT 2136 1220 LT 2213 1220 LT 2220 1256 LT ST
2129 1256 MT 2129 1256 LT 2136 1292 LT 2213 1292 LT 2220 1256 LT ST
(00000005) 22 LC 2255 1256 WT pop 0 originOffset 33 add RSS
2220 1256 MT 2220 1256 LT 2227 1220 LT 2305 1220 LT 2312 1256 LT ST
2220 1256 MT 2220 1256 LT 2227 1292 LT 2305 1292 LT 2312 1256 LT ST
(00000006) 22 LC 2347 1256 WT pop 0 originOffset 33 add RSS
2312 1256 MT 2312 1256 LT 2319 1220 LT 2397 1220 LT 2404 1256 LT ST
2312 1256 MT 2312 1256 LT 2319 1292 LT 2397 1292 LT 2404 1256 LT ST
(00000007) 21 LC 2439 1256 WT pop 0 originOffset 33 add RSS
2404 1256 MT 2404 1256 LT 2411 1220 LT 2488 1220 LT 2495 1256 LT ST
2404 1256 MT 2404 1256 LT 2411 1292 LT 2488 1292 LT 2495 1256 LT ST
(00000008) 22 LC 2530 1256 WT pop 0 originOffset 33 add RSS
2495 1256 MT 2495 1256 LT 2502 1220 LT 2580 1220 LT 2587 1256 LT ST
2495 1256 MT 2495 1256 LT 2502 1292 LT 2580 1292 LT 2587 1256 LT ST
(00000009) 22 LC 2622 1256 WT pop 0 originOffset 33 add RSS
2587 1256 MT 2587 1256 LT 2594 1220 LT 2672 1220 LT 2679 1256 LT ST
2587 1256 MT 2587 1256 LT 2594 1292 LT 2672 1292 LT 2679 1256 LT ST
(0000000A) 21 LC 2714 1256 WT pop 0 originOffset 33 add RSS
2679 1256 MT 2679 1256 LT 2686 1220 LT 2763 1220 LT 2770 1256 LT ST
2679 1256 MT 2679 1256 LT 2686 1292 LT 2763 1292 LT 2770 1256 LT ST
(0000000B) 22 LC 2805 1256 WT pop 0 originOffset 33 add RSS
2770 1256 MT 2770 1256 LT 2777 1220 LT 2855 1220 LT 2862 1256 LT ST
2770 1256 MT 2770 1256 LT 2777 1292 LT 2855 1292 LT 2862 1256 LT ST
(0000000C) 571 LC 2897 1256 WT pop 0 originOffset 33 add RSS
2862 1256 MT 2862 1256 LT 2869 1220 LT 3496 1220 LT 3503 1256 LT ST
2862 1256 MT 2862 1256 LT 2869 1292 LT 3496 1292 LT 3503 1256 LT ST
(FFFFFFFD) 205 LC 3538 1256 WT pop 0 originOffset 33 add RSS
3503 1256 MT 3503 1256 LT 3510 1220 LT 3771 1220 LT 3778 1256 LT ST
3503 1256 MT 3503 1256 LT 3510 1292 LT 3771 1292 LT 3778 1256 LT ST
(FFFFFFFE) 22 LC 3813 1256 WT pop 0 originOffset 33 add RSS
3778 1256 MT 3778 1256 LT 3785 1220 LT 3863 1220 LT 3870 1256 LT ST
3778 1256 MT 3778 1256 LT 3785 1292 LT 3863 1292 LT 3870 1256 LT ST
(FFFFFFFF) 22 LC 3905 1256 WT pop 0 originOffset 33 add RSS
3870 1256 MT 3870 1256 LT 3877 1220 LT 3955 1220 LT 3962 1256 LT ST
3870 1256 MT 3870 1256 LT 3877 1292 LT 3955 1292 LT 3962 1256 LT ST
(00000000) 21 LC 3997 1256 WT pop 0 originOffset 33 add RSS
3962 1256 MT 3962 1256 LT 3969 1220 LT 4046 1220 LT 4053 1256 LT ST
3962 1256 MT 3962 1256 LT 3969 1292 LT 4046 1292 LT 4053 1256 LT ST
(00000001) 22 LC 4088 1256 WT pop 0 originOffset 33 add RSS
4053 1256 MT 4053 1256 LT 4060 1220 LT 4138 1220 LT 4145 1256 LT ST
4053 1256 MT 4053 1256 LT 4060 1292 LT 4138 1292 LT 4145 1256 LT ST
(00000002) 22 LC 4180 1256 WT pop 0 originOffset 33 add RSS
4145 1256 MT 4145 1256 LT 4152 1220 LT 4230 1220 LT 4237 1256 LT ST
4145 1256 MT 4145 1256 LT 4152 1292 LT 4230 1292 LT 4237 1256 LT ST
(00000003) 21 LC 4272 1256 WT pop 0 originOffset 33 add RSS
4237 1256 MT 4237 1256 LT 4244 1220 LT 4321 1220 LT 4328 1256 LT ST
4237 1256 MT 4237 1256 LT 4244 1292 LT 4321 1292 LT 4328 1256 LT ST
(00000004) 22 LC 4363 1256 WT pop 0 originOffset 33 add RSS
4328 1256 MT 4328 1256 LT 4335 1220 LT 4413 1220 LT 4420 1256 LT ST
4328 1256 MT 4328 1256 LT 4335 1292 LT 4413 1292 LT 4420 1256 LT ST
(00000005) 22 LC 4455 1256 WT pop 0 originOffset 33 add RSS
4420 1256 MT 4420 1256 LT 4427 1220 LT 4505 1220 LT 4512 1256 LT ST
4420 1256 MT 4420 1256 LT 4427 1292 LT 4505 1292 LT 4512 1256 LT ST
(00000006) 21 LC 4547 1256 WT pop 0 originOffset 33 add RSS
4512 1256 MT 4512 1256 LT 4519 1220 LT 4596 1220 LT 4603 1256 LT ST
4512 1256 MT 4512 1256 LT 4519 1292 LT 4596 1292 LT 4603 1256 LT ST
(00000007) 22 LC 4638 1256 WT pop 0 originOffset 33 add RSS
4603 1256 MT 4603 1256 LT 4610 1220 LT 4688 1220 LT 4695 1256 LT ST
4603 1256 MT 4603 1256 LT 4610 1292 LT 4688 1292 LT 4695 1256 LT ST
(00000008) 22 LC 4730 1256 WT pop 0 originOffset 33 add RSS
4695 1256 MT 4695 1256 LT 4702 1220 LT 4780 1220 LT 4787 1256 LT ST
4695 1256 MT 4695 1256 LT 4702 1292 LT 4780 1292 LT 4787 1256 LT ST
(00000009) 21 LC 4822 1256 WT pop 0 originOffset 33 add RSS
4787 1256 MT 4787 1256 LT 4794 1220 LT 4871 1220 LT 4878 1256 LT ST
4787 1256 MT 4787 1256 LT 4794 1292 LT 4871 1292 LT 4878 1256 LT ST
(0000000A) 22 LC 4913 1256 WT pop 0 originOffset 33 add RSS
4878 1256 MT 4878 1256 LT 4885 1220 LT 4963 1220 LT 4970 1256 LT ST
4878 1256 MT 4878 1256 LT 4885 1292 LT 4963 1292 LT 4970 1256 LT ST
(0000000B) 22 LC 5005 1256 WT pop 0 originOffset 33 add RSS
4970 1256 MT 4970 1256 LT 4977 1220 LT 5055 1220 LT 5062 1256 LT ST
4970 1256 MT 4970 1256 LT 4977 1292 LT 5055 1292 LT 5062 1256 LT ST
(0000000C) 21 LC 5097 1256 WT pop 0 originOffset 33 add RSS
5062 1256 MT 5062 1256 LT 5069 1220 LT 5146 1220 LT 5153 1256 LT ST
5062 1256 MT 5062 1256 LT 5069 1292 LT 5146 1292 LT 5153 1256 LT ST
(0000000D) 22 LC 5188 1256 WT pop 0 originOffset 33 add RSS
5153 1256 MT 5153 1256 LT 5160 1220 LT 5238 1220 LT 5245 1256 LT ST
5153 1256 MT 5153 1256 LT 5160 1292 LT 5238 1292 LT 5245 1256 LT ST
(0000000E) 21 LC 5280 1256 WT pop 0 originOffset 33 add RSS
5245 1256 MT 5245 1256 LT 5252 1220 LT 5329 1220 LT 5336 1256 LT ST
5245 1256 MT 5245 1256 LT 5252 1292 LT 5329 1292 LT 5336 1256 LT ST
(0000000F) 22 LC 5371 1256 WT pop 0 originOffset 33 add RSS
5336 1256 MT 5336 1256 LT 5343 1220 LT 5421 1220 LT 5428 1256 LT ST
5336 1256 MT 5336 1256 LT 5343 1292 LT 5421 1292 LT 5428 1256 LT ST
(00000010) 22 LC 5463 1256 WT pop 0 originOffset 33 add RSS
5428 1256 MT 5428 1256 LT 5435 1220 LT 5513 1220 LT 5520 1256 LT ST
5428 1256 MT 5428 1256 LT 5435 1292 LT 5513 1292 LT 5520 1256 LT ST
(00000011) 21 LC 5555 1256 WT pop 0 originOffset 33 add RSS
5520 1256 MT 5520 1256 LT 5527 1220 LT 5604 1220 LT 5611 1256 LT ST
5520 1256 MT 5520 1256 LT 5527 1292 LT 5604 1292 LT 5611 1256 LT ST
(00000012) 22 LC 5646 1256 WT pop 0 originOffset 33 add RSS
5611 1256 MT 5611 1256 LT 5618 1220 LT 5696 1220 LT 5703 1256 LT ST
5611 1256 MT 5611 1256 LT 5618 1292 LT 5696 1292 LT 5703 1256 LT ST
(00000013) 22 LC 5738 1256 WT pop 0 originOffset 33 add RSS
5703 1256 MT 5703 1256 LT 5710 1220 LT 5788 1220 LT 5795 1256 LT ST
5703 1256 MT 5703 1256 LT 5710 1292 LT 5788 1292 LT 5795 1256 LT ST
(00000014) 21 LC 5830 1256 WT pop 0 originOffset 33 add RSS
5795 1256 MT 5795 1256 LT 5802 1220 LT 5879 1220 LT 5886 1256 LT ST
5795 1256 MT 5795 1256 LT 5802 1292 LT 5879 1292 LT 5886 1256 LT ST
(00000015) 22 LC 5921 1256 WT pop 0 originOffset 33 add RSS
5886 1256 MT 5886 1256 LT 5893 1220 LT 5971 1220 LT 5978 1256 LT ST
5886 1256 MT 5886 1256 LT 5893 1292 LT 5971 1292 LT 5978 1256 LT ST
(00000016) 22 LC 6013 1256 WT pop 0 originOffset 33 add RSS
5978 1256 MT 5978 1256 LT 5985 1220 LT 6063 1220 LT 6070 1256 LT ST
5978 1256 MT 5978 1256 LT 5985 1292 LT 6063 1292 LT 6070 1256 LT ST
(00000017) 21 LC 6105 1256 WT pop 0 originOffset 33 add RSS
6070 1256 MT 6070 1256 LT 6077 1220 LT 6154 1220 LT 6161 1256 LT ST
6070 1256 MT 6070 1256 LT 6077 1292 LT 6154 1292 LT 6161 1256 LT ST
(00000018) 22 LC 6196 1256 WT pop 0 originOffset 33 add RSS
6161 1256 MT 6161 1256 LT 6168 1220 LT 6246 1220 LT 6253 1256 LT ST
6161 1256 MT 6161 1256 LT 6168 1292 LT 6246 1292 LT 6253 1256 LT ST
(00000019) 22 LC 6288 1256 WT pop 0 originOffset 33 add RSS
6253 1256 MT 6253 1256 LT 6260 1220 LT 6338 1220 LT 6345 1256 LT ST
6253 1256 MT 6253 1256 LT 6260 1292 LT 6338 1292 LT 6345 1256 LT ST
(0000001A) 21 LC 6380 1256 WT pop 0 originOffset 33 add RSS
6345 1256 MT 6345 1256 LT 6352 1220 LT 6429 1220 LT 6436 1256 LT ST
6345 1256 MT 6345 1256 LT 6352 1292 LT 6429 1292 LT 6436 1256 LT ST
(0000001B) 22 LC 6471 1256 WT pop 0 originOffset 33 add RSS
6436 1256 MT 6436 1256 LT 6443 1220 LT 6521 1220 LT 6528 1256 LT ST
6436 1256 MT 6436 1256 LT 6443 1292 LT 6521 1292 LT 6528 1256 LT ST
(0000001C) 22 LC 6563 1256 WT pop 0 originOffset 33 add RSS
6528 1256 MT 6528 1256 LT 6535 1220 LT 6613 1220 LT 6620 1256 LT ST
6528 1256 MT 6528 1256 LT 6535 1292 LT 6613 1292 LT 6620 1256 LT ST
(0000001D) 21 LC 6655 1256 WT pop 0 originOffset 33 add RSS
6620 1256 MT 6620 1256 LT 6627 1220 LT 6704 1220 LT 6711 1256 LT ST
6620 1256 MT 6620 1256 LT 6627 1292 LT 6704 1292 LT 6711 1256 LT ST
(0000001E) 22 LC 6746 1256 WT pop 0 originOffset 33 add RSS
6711 1256 MT 6711 1256 LT 6718 1220 LT 6796 1220 LT 6803 1256 LT ST
6711 1256 MT 6711 1256 LT 6718 1292 LT 6796 1292 LT 6803 1256 LT ST
(0000001F) 22 LC 6838 1256 WT pop 0 originOffset 33 add RSS
6803 1256 MT 6803 1256 LT 6810 1220 LT 6895 1220 LT ST
6803 1256 MT 6803 1256 LT 6810 1292 LT 6895 1292 LT ST
(/timer_tb/DUT/iRegEna) 9999 LC 1359 1411 WT TSE RSS
1847 1318 MT 1861 1318 LS
2305 1318 MT 2319 1318 LS
2763 1318 MT 2777 1318 LS
3222 1318 MT 3236 1318 LS
3680 1318 MT 3694 1318 LS
4138 1318 MT 4152 1318 LS
4596 1318 MT 4610 1318 LS
5055 1318 MT 5069 1318 LS
5513 1318 MT 5527 1318 LS
5971 1318 MT 5985 1318 LS
6429 1318 MT 6443 1318 LS
6888 1318 MT 6902 1318 LS
1397 1376 MT 1487 1376 LS
1487 1412 MT 1487 1376 LS
1488 1412 MT 1762 1412 LS
1762 1412 MT 1762 1340 LS
1763 1340 MT 2862 1340 LS
2862 1412 MT 2862 1340 LS
2863 1412 MT 3687 1412 LS
3687 1412 MT 3687 1340 LS
3688 1340 MT 6895 1340 LS
6895 1340 MT 6895 1340 LS
(/timer_tb/DUT/iRegIrq) 9999 LC 1359 1531 WT TSE RSS
1847 1438 MT 1861 1438 LS
2305 1438 MT 2319 1438 LS
2763 1438 MT 2777 1438 LS
3222 1438 MT 3236 1438 LS
3680 1438 MT 3694 1438 LS
4138 1438 MT 4152 1438 LS
4596 1438 MT 4610 1438 LS
5055 1438 MT 5069 1438 LS
5513 1438 MT 5527 1438 LS
5971 1438 MT 5985 1438 LS
6429 1438 MT 6443 1438 LS
6888 1438 MT 6902 1438 LS
1397 1496 MT 1487 1496 LS
1487 1532 MT 1487 1496 LS
1488 1532 MT 4053 1532 LS
4053 1532 MT 4053 1460 LS
4054 1460 MT 6253 1460 LS
6253 1532 MT 6253 1460 LS
6254 1532 MT 6895 1532 LS
6895 1532 MT 6895 1532 LS
(/timer_tb/DUT/iRegIrqEna) 9999 LC 1359 1651 WT TSE RSS
1847 1558 MT 1861 1558 LS
2305 1558 MT 2319 1558 LS
2763 1558 MT 2777 1558 LS
3222 1558 MT 3236 1558 LS
3680 1558 MT 3694 1558 LS
4138 1558 MT 4152 1558 LS
4596 1558 MT 4610 1558 LS
5055 1558 MT 5069 1558 LS
5513 1558 MT 5527 1558 LS
5971 1558 MT 5985 1558 LS
6429 1558 MT 6443 1558 LS
6888 1558 MT 6902 1558 LS
1397 1616 MT 1487 1616 LS
1487 1652 MT 1487 1616 LS
1488 1652 MT 3595 1652 LS
3595 1652 MT 3595 1580 LS
3596 1580 MT 6895 1580 LS
6895 1580 MT 6895 1580 LS
% draw footer
(Entity:timer_tb  Architecture:tb  Date: Thu Apr 13 14:22:49 CEST 2017   Row: 1 Page: 1) 9999 LC 118 4841 WT TSW RSS
grestore
showpage
%%EOF
