Image: 0
First Pixel Image  0 = 0xFFFF8000
mA = 9F
X(0)(0) = 0x18AA13F0
X(0)(1) = 0x00F003F0
X(0)(2) = 0x08FDC000
X(0)(3) = 0x08FDC000
\n
Image: 1
First Pixel Image  1 = 0xFFFE8100
mB = 9F
Z(1)(0) = 0x18AA13F0
Z(1)(1) = 0x00E0C7C0
Z(1)(2) = 0x08CE0BF0
Z(1)(3) = 0x08FDC000
\n
Y(1)(0) = 0x18AA13F0
Y(1)(1) = 0x00E845E0
Y(1)(2) = 0x08E5C600
Y(1)(3) = 0x08FDC000
Image: 2
First Pixel Image  2 = 0xFFFD8200
mB = 9F
Z(2)(0) = 0x18AA13F0
Z(2)(1) = 0x00D20B70
Z(2)(2) = 0x089ED7C0
Z(2)(3) = 0x08FDC000
\n
Y(2)(0) = 0x18AA13F0
Y(2)(1) = 0x00E087D0
Y(2)(2) = 0x08CDCC00
Y(2)(3) = 0x08FDC000
Image: 3
First Pixel Image  3 = 0xFFFC8300
mB = 9F
Z(3)(0) = 0x18AA13F0
Z(3)(1) = 0x00C3CF00
Z(3)(2) = 0x08702370
Z(3)(3) = 0x08FDC000
\n
Y(3)(0) = 0x18AA13F0
Y(3)(1) = 0x00D8C9C0
Y(3)(2) = 0x08B5D200
Y(3)(3) = 0x08FDC000
Image: 4
First Pixel Image  4 = 0xFFFB8400
mB = 9F
Z(4)(0) = 0x18AA13F0
Z(4)(1) = 0x00B61270
Z(4)(2) = 0x0841EF00
Z(4)(3) = 0x08FDC000
\n
Y(4)(0) = 0x18AA13F0
Y(4)(1) = 0x00D10BB0
Y(4)(2) = 0x089DD800
Y(4)(3) = 0x08FDC000
Image: 5
First Pixel Image  5 = 0xFFFA8500
mB = 9F
Z(5)(0) = 0x18AA13F0
Z(5)(1) = 0x00A8D5C0
Z(5)(2) = 0x08143A70
Z(5)(3) = 0x08FDC000
\n
Y(5)(0) = 0x18AA13F0
Y(5)(1) = 0x00C94DA0
Y(5)(2) = 0x0885DE00
Y(5)(3) = 0x08FDC000
>> 